﻿
##################################################
########### KINGDOM OF VISWALL ###################
##################################################

#################
# House sil Vis #
#################

sil_vis_0001 = { # King Finnic “Shadowhand” síl Vis
    name = "Finnic"
    dynasty = dynasty_vis
    religion = small_temple
    culture = hillfoot_halfling

    trait = race_halfling
    trait = education_intrigue_4
    trait = brave
    trait = deceitful
    trait = humble
    trait = intellect_good_2
    trait = peasant_leader

    1001.4.1 = { # Inherited from Test
        birth = yes
		if = {
			limit = {
				has_game_rule = enable_marked_by_destiny
			}
			add_character_modifier = { modifier = anb_marked_by_destiny_modifier }
		}
		effect = {
			add_character_flag = has_scripted_appearance
		}
    }
    1020.8.31 = { # Battle of the Trialmount major event
        give_nickname = nick_shadowhand
        effect = {
            set_relation_friend = character:barrows_0004 # Toman Barrows
            set_relation_lover = character:barrows_0010 # Clothilde Barrows
            set_relation_friend = character:723	#Taranath - Inherited from Test
        }
    }
    1021.1.1 = {
        add_spouse = barrows_0010 # Clothilde Barrows
    }
}

sil_vis_0002 = { #Edric sil Vis, son of Finnic “Shadowhand”
    name = "Edric"
    dynasty = dynasty_vis
    religion = small_temple
    culture = hillfoot_halfling

    trait = race_halfling

    father = sil_vis_0001 # Finnic sil Vis
    mother = barrows_0010 # Clothilde Barrows

    1021.9.1 = {
        birth = yes
    }
}

##############
# House Hill #
##############

hill_0001 = { # Grif Hill, Small King, Count of Hillwater
    name = "Grif"
    dynasty = dynasty_vis
    religion = small_temple
    culture = hillfoot_halfling

    trait = race_halfling

    805.1.1 = {
        birth = yes
    }

    847.1.1 = { # PLACEHOLDER Probably died as a result of the Cider Feud
        death = "847.1.1"
    }
}

hill_0002 = { # King Henric "the Last" Small King, Small King (until 981), Duke of Viswall & Barrowshire (until 981), Count of Hillwater and Viswall
    name = "Henric"
    dynasty = dynasty_hill
    religion = small_temple
    culture = hillfoot_halfling

    trait = race_halfling
    trait = education_diplomacy_1
    trait = honest
    trait = stubborn
    trait = trusting
    trait = family_first

    950.6.27 = {
        birth = yes
    }

    992.1.1 = { # PLACEHOLDER Lost titles in Third Tall War, died in Invasion of Lencenor
        death = "992.1.1"
    }
}

hill_0003 = { # Lord Bobbin Hill, Duke of Viswall, Count of Hillwater and Viswall
    name = "Bobbin"
    dynasty = dynasty_hill
    religion = small_temple
    culture = hillfoot_halfling

    father = hill_0002 # Henric Hill

    trait = race_halfling
    trait = education_learning_1
    trait = gluttonous
    trait = compassionate
    trait = trusting

    981.4.19 = {
        birth = yes
    }
    994.1.1 = { # PLACEHOLDER died in Invasion of Lencenor by Mafalda the Mad during Occupation of Viswall
        death = "994.1.1" 
    }
}

hill_0004 = { # Ben Hill
    name = "Ben"
    dynasty = dynasty_hill
    culture = hillfoot_halfling
    religion = small_temple

    father =  hill_0002 # Lineage of Hill

    trait = race_halfling

    967.5.21 = {
        birth = yes
    }

    984.3.17 = {
        add_spouse = grey_0007 # Alvaba Grey
    }

    992.1.1 = { # PLACEHOLDER WotSK
        death = "992.1.1" 
    }

}

hill_0005 = { # Donna Hill, Countess of Hillwater
    name = "Donna"
    dynasty = dynasty_hill
    religion = small_temple
    culture = hillfoot_halfling
    female = yes

    trait = race_halfling
    trait = education_diplomacy_1
    trait = just
    trait = content
    trait = diligent
    trait = overseer

    father = hill_0004 # Ben Hill
    mother = grey_0007 # Alvaba Grey

    985.11.2 = {
        birth = yes
    }

    998.1.1 = { # PLACEHOLDER
        add_spouse = small_0012 # Caradoc
    }

}

hill_0006 = { # Eleanore Hill
    name = "Eleanore"
    dynasty = dynasty_hill
    culture = hillfoot_halfling
    religion = small_temple
    female = yes
    father = small_0012 # Caradoc
    mother = hill_0005 # Donna Hill, Countess of Hillwater

    trait = race_halfling
    trait = education_learning_2
    trait = zealous
    trait = callous
    trait = arrogant

    1005.3.14 = {
        birth = yes
    }
}

hill_0007 = { # Marion Hill
    name = "Marion"
    dynasty = dynasty_hill
    culture = hillfoot_halfling
    religion = small_temple
    father = small_0012 # Caradoc
    mother = hill_0005 # Donna Hill, Countess of Hillwater

    trait = race_halfling
    trait = education_learning_2
    trait = stubborn
    trait = humble
    trait = diligent
    trait = curious

    1007.6.7 = {
        birth = yes
    }
}

hill_0008 = { # Cerdic Hill
    name = "Cedric"
    dynasty = dynasty_hill
    culture = hillfoot_halfling
    religion = small_temple
    father = small_0012 # Caradoc
    mother = hill_0005 # Donna Hill, Countess of Hillwater

    trait = race_halfling
    trait = just
    trait = bossy
    
    1012.11.12 = {
        birth = yes
    }
}

hill_0009 = { # Lorna Hill
    name = "Lorna"
    dynasty = dynasty_hill
    culture = hillfoot_halfling
    religion = small_temple
    female = yes
    father = hill_0004 # Ben Hill
    mother = grey_0007 # Alvaba Grey

    trait = race_halfling
    trait = education_stewardship_1
    trait = content
    trait = lazy
    trait = gregarious
    trait = lifestyle_gardener
    trait = whole_of_body
    
    982.5.7 = {
        birth = yes
    }
}

hill_0010 = { # Sam Hill, Baron of South Viswall
    name = "Sam"
    dynasty = dynasty_hill
    culture = hillfoot_halfling
    religion = small_temple
    father =  hill_0002 # Lineage of Hill

    trait = race_halfling
    trait = education_stewardship_3
    trait = craven
    trait = ambitious
    trait = vengeful
    trait = disloyal

    994.1.19 = {
        birth = yes
    }

    1014.9.27 = {
        effect = {
            set_relation_friend = character:sil_bee_0001 # Brayden síl Bee, Mayor of Beepeck
        }
        add_spouse = barrows_0007 # Pearl Barrows
    }
}

hill_0011 = { # Lothan Hill
    name = "Lothan"
    dynasty = dynasty_hill
    culture = hillfoot_halfling
    religion = small_temple
    father = hill_0010 # Sam Hill, Baron of South Viswall
    mother = barrows_0007 # Pearl Barrows

    trait = race_halfling
    trait = rowdy

    1015.2.8 = {
        birth = yes
    }

}

hill_0012 = { # Torbin Hill, Baron of North Viswall
    name = "Torbin"
    dynasty = dynasty_hill
    culture = hillfoot_halfling
    religion = small_temple

    trait = race_gnomeling
    trait = education_learning_4
    trait = fickle
    trait = forgiving
    trait = gregarious
    trait = magical_affinity_1
    trait = irritable
    trait = poet
    trait = depressed_1 # TODO Genetic or not?

    911.7.15 = {
        birth = yes
    }
}

####################
# House Copperburn #
####################

copperburn_0001 = { # Lord Cooper Copperburn, Count of Coppertown
    name = "Cooper"
    dynasty = dynasty_copperburn
    culture = hillfoot_halfling
    religion = small_temple

    trait = race_halfling

    945.9.21 = {
        birth = yes
    }
    
    965.6.22 = {
        add_spouse = roysfort_0006 # Adeline Roysfort
    }

    975.1.27 = { # PLACEHOLDER Pre-WotSK
        death = yes
    }
}

copperburn_0002 = { # Lord Humbard Copperburn, Count of Coppertown
    name = "Humbard"
    dynasty = dynasty_copperburn
    culture = hillfoot_halfling
    religion = small_temple
    father = copperburn_0001 # Lord Cooper Copperburn, Count of Coppertown
    mother = roysfort_0006 # Adeline Roysfort
    
    trait = race_halfling
    trait = education_stewardship_3
    trait = ambitious
    trait = vengeful
    trait = patient
    trait = family_first
    trait = schemer
    trait = twin

    967.3.17 = {
        birth = yes
    }

    987.6.20 = {
        add_spouse = grey_0003 # Margery Grey
        effect = {
            set_relation_rival = character:barrows_0001 # Lord Toman Barrows, Lord of Barrowshire
            set_relation_friend = character:sil_peck_0002 # Samuel síl Peck, Baron of Hiveshold
        }
    }
}

copperburn_0003 = { # Rose Copperburn
    name = "Rose"
    dynasty = dynasty_copperburn
    culture = hillfoot_halfling
    religion = small_temple
    father = copperburn_0002 # Lord Humbard Copperburn, Count of Coppertown
    mother = grey_0003 # Margery Grey
    female = yes

    trait = race_halfling
    trait = education_intrigue_1
    trait = ambitious
    trait = lustful
    trait = arrogant
    trait = beauty_good_2
    trait = profligate

    1000.3.6 = {
        birth = yes
    }
    1021.1.1 = {
        effect = {
            set_relation_rival = character:barrows_0010 # Clothilde Barrows, Queen-Consort of Viswall, lost romantic suit for Finnic 
        }
    }
}

copperburn_0004 = { # Patina Copperburn
    name = "Patina"
    dynasty = dynasty_copperburn
    culture = hillfoot_halfling
    religion = small_temple
    father = copperburn_0002 # Lord Humbard Copperburn, Count of Coppertown
    mother = grey_0003 # Margery Grey
    female = yes

    trait = race_halfling
    trait = education_diplomacy_2
    trait = chaste
    trait = greedy
    trait = cynical

    1003.9.4 = {
        birth = yes
    }
}

copperburn_0005 = { # Rabard Copperburn
    name = "Rabard"
    dynasty = dynasty_copperburn
    culture = hillfoot_halfling
    religion = small_temple
    father = copperburn_0002 # Lord Humbard Copperburn, Count of Coppertown
    mother = grey_0003 # Margery Grey

    trait = race_halfling
    trait = education_stewardship_2
    trait = impatient
    trait = generous
    trait = shy

    1005.11.13 = {
        birth = yes
    }
}

copperburn_0006 = { # Malach "the Tinker" Copperburn
    name = "Malach"
    dynasty = dynasty_copperburn
    culture = hillfoot_halfling
    religion = small_temple
    father = copperburn_0002 # Lord Humbard Copperburn, Count of Coppertown
    mother = grey_0003 # Margery Grey

    trait = race_halfling
    trait = diligent
    trait = fickle
    trait = curious
    trait = intellect_good_3

    1008.1.28 = {
        birth = yes
    }
    # PLACEHOLDER FRIENDS 1x GNOME from IOCHAND, 1x DWARF from RUBYHOLD
}

copperburn_0007 = { # Filip Copperburn
    name = "Filip"
    dynasty = dynasty_copperburn
    culture = hillfoot_halfling
    religion = small_temple
    father = copperburn_0001 # Lord Cooper Copperburn, Count of Coppertown
    mother = roysfort_0006 # Adeline Roysfort

    trait = race_halfling
    trait = education_martial_3
    trait = content
    trait = impatient
    trait = forgiving
    trait = gallant
    trait = theologian
    trait = reckless
    trait = twin
    trait = lifestyle_blademaster

    967.7.18 = {
        birth = yes
    }

    987.9.7 = {
        effect = {
            set_relation_friend = character:barrows_0001 # Lord Toman Barrows, Lord of Barrowshire
        }
        add_trait_xp = { # Blademaster 2
            trait = lifestyle_blademaster 
            value = 50 
        }
    }

}

#################
# House Barrows #
#################

barrows_0001 = { # Lord Toman Barrows, Lord of Barrowshire
    name = "Toman"
    dynasty = dynasty_barrows
    culture = hillfoot_halfling
    religion = small_temple

    trait = race_halfling
    trait = education_diplomacy_3
    trait = arrogant
    trait = gregarious
    trait = calm
    trait = family_first
    trait = diplomat
    trait = loyal

    970.11.12 = {
        birth = yes
    }

    990.2.26 = {
        add_spouse = thomsbridge_0003 # Myrtle Thomsbridge
    }
    1020.7.15 = {
        effect = {
            set_relation_friend = character:sil_vis_0001 # King Finnic “Shadowhand” síl Vis
        }
    }

}

barrows_0002 = { # Damas Barrows
    name = "Damas"
    dynasty = dynasty_barrows
    culture = hillfoot_halfling
    religion = small_temple
    father = barrows_0001 # Lord Toman Barrows, Lord of Barrowshire
    mother = thomsbridge_0003 # Myrtle Thomsbridge

    trait = race_halfling
    trait = education_stewardship_1
    trait = arrogant
    trait = lazy
    trait = callous
    trait = physique_good_1

    991.7.4 = {
        birth = yes
    }

    1011.12.4 = {
        add_spouse = appleseed_0003 # Gala Appleseed
    }
}

barrows_0003 = { # Anna Barrows
    name = "Anna"
    dynasty = dynasty_barrows
    culture = hillfoot_halfling
    religion = small_temple
    female = yes
    father = barrows_0002 # Damas Barrows
    mother = appleseed_0003 # Gala Appleseed

    trait = race_halfling
    trait = impatient
    trait = charming

    1012.11.6 = {
        birth = yes
    }
}

barrows_0004 = { # Tomas Barrows
    name = "Tomas"
    dynasty = dynasty_barrows
    culture = hillfoot_halfling
    religion = small_temple
    father = barrows_0002 # Damas Barrows
    mother = appleseed_0003 # Gala Appleseed

    trait = race_halfling
    trait = bossy

    1015.4.15 = {
        birth = yes
    }
}

barrows_0005 = { # Valence Barrows
    name = "Valence"
    dynasty = dynasty_barrows
    culture = hillfoot_halfling
    religion = small_temple
    father = barrows_0002 # Damas Barrows
    mother = appleseed_0003 # Gala Appleseed

    trait = race_halfling
    trait = curious

    1019.8.18 = {
        birth = yes
    }
}

barrows_0006 = { # Robar "the Mole" Barrows
    name = "Robar"
    dynasty = dynasty_barrows
    culture = hillfoot_halfling
    religion = small_temple
    father = barrows_0001 # Lord Toman Barrows, Lord of Barrowshire
    mother = thomsbridge_0003 # Myrtle Thomsbridge

    trait = race_halfling
    trait = education_learning_4
    trait = shy
    trait = humble
    trait = paranoid
    trait = stuttering
    trait = blind
    trait = lifestyle_mystic
    trait = scholar

    993.5.25 = {
        birth = yes
    }

    1013.8.8 = {
        add_spouse = tip_0007 # Marianna Tip
    }
}

barrows_0007 = { # Pearl Barrows
    name = "Pearl"
    dynasty = dynasty_barrows
    culture = hillfoot_halfling
    religion = small_temple
    female = yes
    father = barrows_0001 # Lord Toman Barrows, Lord of Barrowshire
    mother = thomsbridge_0003 # Myrtle Thomsbridge

    trait = race_halfling
    trait = education_intrigue_2
    trait = ambitious
    trait = greedy
    trait = wrathful
    trait = physique_good_2
    trait = shrewd

    996.10.19 = {
        birth = yes
    }
}

barrows_0008 = { # Miradonna Barrows
    name = "Miradonna"
    dynasty = dynasty_barrows
    culture = hillfoot_halfling
    religion = small_temple
    female = yes
    father = barrows_0001 # Lord Toman Barrows, Lord of Barrowshire
    mother = thomsbridge_0003 # Myrtle Thomsbridge

    trait = race_halfling
    trait = education_martial_2
    trait = brave
    trait = gluttonous
    trait = calm
    trait = adventurer

    999.10.27 = {
        birth = yes
    }
}

barrows_0009 = { # Felix Barrows
    name = "Felix"
    dynasty = dynasty_barrows
    culture = hillfoot_halfling
    religion = small_temple
    father = barrows_0001 # Lord Toman Barrows, Lord of Barrowshire
    mother = thomsbridge_0003 # Myrtle Thomsbridge

    trait = race_halfling
    trait = education_diplomacy_3
    trait = chaste
    trait = arrogant
    trait = impatient
    trait = physique_good_1
    trait = poet

    1001.11.16 = {
        birth = yes
    }
}

barrows_0010 = { # Clothilde Barrows, Queen-Consort of Viswall
    name = "Clothilde"
    dynasty = dynasty_barrows
    culture = hillfoot_halfling
    religion = small_temple
    female = yes
    father = barrows_0001 # Lord Toman Barrows, Lord of Barrowshire
    mother = thomsbridge_0003 # Myrtle Thomsbridge

    trait = race_halfling
    trait = education_diplomacy_2
    trait = just
    trait = compassionate
    trait = diligent
    trait = physique_good_1
    trait = shrewd

    1003.4.11 = {
        birth = yes
    }
}

#####################
# House Smallshield #
#####################

smallshield_0001 = { # Lord Celodorian Smallshield, Count of Aelcandar
    name = "Celodorian"
    dynasty = dynasty_smallshield
    culture = moon_elvish
    religion = small_temple

    trait = race_elf
    trait = education_martial_4
    trait = humble
    trait = gregarious
    trait = honest
    trait = unyielding_defender
    trait = gallant
    trait = loyal

    882.8.16 = {
        birth = yes
    }

    # TODO Add spouse, maybe Lencori woman, perhaps Lasean
}

smallshield_0002 = { # Evindal Smallshield
    name = "Evindal"
    dynasty = dynasty_smallshield
    culture = moon_elvish
    religion = small_temple
    father = smallshield_0001 # Lord Celodorian Smallshield, Count of Aelcandar
    # TODO add mother see above

    trait = race_half_elf
    trait = curious

    1017.2.25 = {
        birth = yes
    }
}


##############
# House Cand #
##############

cand_0001 = { # Andwise Cand
    name = "Andwise"
    dynasty = dynasty_cand
    culture = hillfoot_halfling
    religion = small_temple

    trait = race_halfling
    trait = education_stewardship_3
    trait = honest
    trait = just
    trait = calm
    trait = loyal

    997.12.2 = {
        birth = yes
    }

    1017.10.13 = {
        add_spouse = hill_0006 # Eleanore Hill
    }
}

##############
# House Grey #
##############

grey_0001 = { # Lord Ardor Grey, Count of Greymill & Old Course
    name = "Ardor"
    dynasty = dynasty_grey
    culture = hillfoot_halfling
    religion = small_temple

    trait = race_halfling
    trait = intellect_good_2

    940.9.1 = {
        birth = yes
    }

    961.9.22 = {
        add_spouse = small_0001 # Esmeralda
    }

    985.3.20 = { # PLACEHOLDER Pre-WotSK Timelines are really tight here
        death = yes
    }
}

grey_0002 = { # Lomar Grey
    name = "Lomar"
    dynasty = dynasty_grey
    culture = hillfoot_halfling
    religion = small_temple
    father = grey_0001 # Lord Ardor Grey, Count of Greymill & Old Course
    mother = small_0001 # Esmeralda

    trait = race_halfling

    980.6.18 = {
        birth = yes
    }

    980.7.30 = { # PLACEHOLDER Third Tall War
        death = yes
    }
}

grey_0003 = { # Margery Grey
    name = "Margery"
    dynasty = dynasty_grey
    culture = hillfoot_halfling
    religion = small_temple
    female = yes
    father = grey_0001 # Lord Ardor Grey, Count of Greymill & Old Course
    mother = small_0001 # Esmeralda

    trait = race_halfling
    trait = intellect_good_1
    trait = beauty_good_1

    981.3.30 = {
        birth = yes
    }
    1008.4.6 = { # PLACEHOLDER Died in Childbirth
        death = yes
    }
}

grey_0004 = { # Henric Grey
    name = "Henric"
    dynasty = dynasty_grey
    culture = hillfoot_halfling
    religion = small_temple
    father = grey_0001 # Lord Ardor Grey, Count of Greymill & Old Course
    mother = small_0001 # Esmeralda

    trait = race_halfling

    982.6.7 = {
        birth = yes
    }

    982.8.15 = { # PLACEHOLDER Third Tall War
        death = yes
    }

}

grey_0005 = { # Trystan Grey
    name = "Trystan"
    dynasty = dynasty_grey
    culture = hillfoot_halfling
    religion = small_temple
    father = grey_0001 # Lord Ardor Grey, Count of Greymill & Old Course
    mother = small_0001 # Esmeralda

    trait = race_halfling
    trait = intellect_good_2

    983.4.15 = {
        birth = yes
    }

    1010.7.21 = { # PLACEHOLDER TBD
        death = yes
    }
}

grey_0006 = { # Pervinca Grey
    name = "Pervinca"
    dynasty = dynasty_grey
    culture = hillfoot_halfling
    religion = small_temple
    father = grey_0005 # Trystan Grey
    female = yes

    trait = race_halfling
    trait = diligent
    trait = zealous
    trait = curious
    trait = intellect_good_2

    1007.8.3 = {
        birth = yes
    }
}

grey_0007 = { # Alvaba Grey
    name = "Alvaba"
    dynasty = dynasty_grey
    culture = hillfoot_halfling
    religion = small_temple
    female = yes
    father = grey_0001 # Lord Ardor Grey, Count of Greymill & Old Course
    mother = small_0001 # Esmeralda

    trait = race_halfling
    trait = twin

    962.9.12 = {
        birth = yes
    }
    999.9.27 = { # PLACEHOLDER WotSK
        death = yes
    }
}

grey_0008 = { # Galinda Grey
    name = "Galinda"
    dynasty = dynasty_grey
    culture = hillfoot_halfling
    religion = small_temple
    father = grey_0001 # Lord Ardor Grey, Count of Greymill & Old Course
    mother = small_0001 # Esmeralda
    female = yes

    trait = race_halfling
    trait = twin

    962.9.3 = {
        birth = yes
    }

    996.10.3 = {
        add_spouse = small_0007 # Samuel
    }

    1005.9.10 = { # PLACEHOLDER WotSK
        death = yes
    }
}

grey_0009 = { # Lord Vincen "the Almost-Last" Grey, Count of Greymill & Old Course
    name = "Vincen"
    dynasty = dynasty_grey
    culture = hillfoot_halfling
    religion = small_temple
    father = grey_0001 # Lord Ardor Grey, Count of Greymill & Old Course
    mother = small_0001 # Esmeralda

    trait = race_halfling
    trait = education_stewardship_2
    trait = cynical
    trait = chaste
    trait = paranoid
    trait = depressed_1
    trait = architect

    984.2.20 = {
        birth = yes
    }

    1020.1.1 = {
        give_nickname = nick_almost_last
        effect = {
            set_relation_friend = character:sil_vis_0001 # King Finnic “Shadowhand” síl Vis
            set_relation_ward = character:grey_0006 # Pervinca Grey
        }
    }
}


################
# House Norley #
################

norley_0001 = { # Lord Lan Norley, Count of Norley
    name = "Lan"
    dynasty = dynasty_norley
    culture = ciderfoot_halfling
    religion = small_temple
    mother = grey_0008 # Galinda Grey
    father = small_0007 # Samuel

    trait = race_halfling
    trait = education_learning_2
    trait = gluttonous
    trait = trusting
    trait = humble
    trait = lifestyle_reveler

    998.6.1 = {
        birth = yes
    }
    1019.1.1 = {
        add_spouse = peartree_0009 # Concordia Peartree
    }
}

norley_0002 = { # Rufus Norley
    name = "Rufus"
    dynasty = dynasty_norley
    culture = ciderfoot_halfling
    religion = small_temple
    father = norley_0001 # Lord Lan Norley, Count of Norley
    mother = peartree_0009 # Concordia Peartree

    trait = race_halfling
    trait = rowdy

    1020.4.1 = {
        birth = yes
    }
}


####################
# House Courseheir #
####################

courseheir_0001 = { # Lord Lombar Courseheir, Count of Old Course
    name = "Lombar"
    dynasty = dynasty_courseheir
    culture = oakfoot_halfling
    religion = small_temple

    trait = race_halfling
    trait = education_intrigue_2
    trait = greedy
    trait = brave 
    trait = sadistic
    trait = forder
    trait = seducer
    trait = viking

    979.3.14 = {
        birth = yes
    }

    995.12.26 = {
        add_spouse = small_0003 # Barbara
    }
}

courseheir_0002 = { # Malo Courseheir
    name = "Malo"
    dynasty = dynasty_courseheir
    culture = oakfoot_halfling
    religion = small_temple
    father = courseheir_0001 # Lord Lombar Courseheir, Count of Old Course
    mother = small_0003 # Barbara

    trait = race_halfling
    trait = education_martial_2
    trait = forgiving
    trait = wrathful
    trait = arbitrary
    trait = reaver
    trait = strategist

    999.11.4 = {
        birth = yes
    }
}


#####################
# House Thomsbridge #
#####################

thomsbridge_0001 = { # Lord Thom "the Bridgewright" Thomsbridge I, Count of Thomsbridge & Merryfield
    name = "Thom"
    dynasty = dynasty_thomsbridge
    culture = hillfoot_halfling
    religion = small_temple

    trait = race_halfling
    trait = education_stewardship_3
    trait = diligent
    trait = ambitious
    trait = physique_good_1

    910.7.8 = {
        birth = yes
    }

    970.2.17 = { # PLACEHOLDER Pre-WotSK
        give_nickname = nick_the_bridgewright
        death = yes
    }
}

thomsbridge_0002 = { # Lord Thom “the Tollman” Thomsbridge II, Count of Thomsbridge & Merryfield
    name = "Thom"
    dynasty = dynasty_thomsbridge
    culture = hillfoot_halfling
    religion = small_temple
    father = thomsbridge_0001 # Lord Thom "the Bridgewright" Thomsbridge I, Count of Thomsbridge & Merryfield

    trait = race_halfling
    trait = education_stewardship_2
    trait = greedy
    trait = patient
    trait = physique_good_2

    945.8.22 = {
        birth = yes
    }

    973.3.7 = {
        add_spouse = small_0002 # Lalia
    }

    984.11.19 = { # PLACEHOLDER Post Third Tall War
        give_nickname = nick_the_tollman
        death = yes
    }
}

thomsbridge_0003 = { # Myrtle Thomsbridge
    name = "Myrtle"
    dynasty = dynasty_thomsbridge
    culture = hillfoot_halfling
    religion = small_temple
    female = yes
    father = thomsbridge_0002 # Lord Thom “the Tollman” Thomsbridge II, Count of Thomsbridge & Merryfield
    mother = small_0002 # Lalia

    trait = race_halfling
    trait = education_diplomacy_2
    trait = vengeful
    trait = wrathful
    trait = temperate
    trait = physique_good_2

    974.4.20 = {
        birth = yes
    }


}

thomsbridge_0004 = { # Poppy Thomsbridge
    name = "Poppy"
    dynasty = dynasty_thomsbridge
    culture = hillfoot_halfling
    religion = small_temple
    father = thomsbridge_0002 # Lord Thom “the Tollman” Thomsbridge II, Count of Thomsbridge & Merryfield
    mother = small_0002 # Lalia

    trait = race_halfling
    trait = education_learning_1
    trait = forgiving
    trait = fickle
    trait = compassionate
    trait = dull
    trait = physique_good_3

    978.2.18 = {
        birth = yes
    }
}

thomsbridge_0005 = { # Lord Thom “the Bridgekeep” Thomsbridge III, Count of Thomsbridge & Merryfield
    name = "Thom"
    dynasty = dynasty_thomsbridge
    culture = hillfoot_halfling
    religion = small_temple
    father = thomsbridge_0002 # Lord Thom “the Tollman” Thomsbridge II, Count of Thomsbridge & Merryfield
    mother = small_0002 # Lalia

    trait = race_halfling
    trait = education_martial_2
    trait = stubborn
    trait = honest
    trait = temperate
    trait = physique_good_2
    trait = gallant
    trait = whole_of_body
    trait = scarred
    trait = athletic
    trait = unyielding_defender

    980.1.23 = {
        birth = yes
    }

    1000.1.1 = { # Awarded for holding until the Landing
        give_nickname = nick_the_bridgekeep
        add_spouse = hill_0009 # Lorna Hill
        effect = {
            set_relation_rival = character:tip_0003 # Lord Crovan Tip, Count of Tipney
        }
    }
}

thomsbridge_0006 = { # Borian “the Riddler” Thomsbridge
    name = "Borian"
    dynasty = dynasty_thomsbridge
    culture = hillfoot_halfling
    religion = small_temple
    father = thomsbridge_0005 # Lord Thom “the Bridgekeep” Thomsbridge III, Count of Thomsbridge & Merryfield
    mother = hill_0009 # Lorna Hill

    trait = race_halfling
    trait = education_diplomacy_3
    trait = deceitful
    trait = gregarious
    trait = fickle
    trait = poet

    1002.4.20 = {
        birth = yes
    }

    1022.1.1 = {
        give_nickname = nick_the_riddler
    }
}

thomsbridge_0007 = { # Adria Thomsbridge
    name = "Adria"
    dynasty = dynasty_thomsbridge
    culture = hillfoot_halfling
    religion = small_temple
    father = thomsbridge_0005 # Lord Thom “the Bridgekeep” Thomsbridge III, Count of Thomsbridge & Merryfield
    mother = hill_0009 # Lorna Hill
    female = yes

    trait = race_halfling
    trait = education_learning_3
    trait = shy
    trait = humble
    trait = content
    trait = scholar
    trait = physique_good_3

    1005.2.18 = {
        birth = yes
    }
}

#############
# House Tip #
#############

tip_0001 = { # Tippin Tip, Small King
    name = "Tippin"
    dynasty = dynasty_tip
    culture = hillfoot_halfling
    religion = small_temple

    trait = race_halfling
    trait = education_martial_4
    trait = brave
    trait = ambitious
    trait = stubborn
    trait = family_first
    trait = schemer

    455.12.23 = {
        birth = yes
    }
    516.5.24 = {
        death = yes
    }
}

tip_0002 = { # Dabbo Tip, Count of Tipney
    name = "Dabbo"
    dynasty = dynasty_tip
    culture = hillfoot_halfling
    religion = small_temple
    father = tip_0001 # Tippin Tip, Small King

    trait = race_halfling
    trait = education_learning_1
    trait = lazy
    trait = forgiving
    trait = trusting

    967.5.3 = {
        birth = yes
    }
    985.10.1 = {
        add_spouse = small_0005 # Lita
    }
    1005.9.24 = {
        death = yes
    }
}

tip_0003 = { # Lord Crovan Tip, Count of Tipney
    name = "Crovan"
    dynasty = dynasty_tip
    culture = hillfoot_halfling
    religion = small_temple
    father = tip_0002 # Dabbo Tip, Count of Tipney
    mother = small_0005 # Lita

    trait = race_halfling
    trait = education_diplomacy_1
    trait = lazy
    trait = craven
    trait = generous
    trait = disloyal

    987.10.8 = {
        birth = yes
    }
    1005.3.1 = {
        add_spouse = small_0004 # Pepper
    }
}

tip_0004 = { # Marlo Tip
    name = "Marlo"
    dynasty = dynasty_tip
    culture = hillfoot_halfling
    religion = small_temple
    father = tip_0003 # Lord Crovan Tip, Count of Tipney
    mother = small_0004 # Pepper

    trait = race_halfling
    trait = education_intrigue_3
    trait = fickle
    trait = paranoid
    trait = compassionate
    trait = reclusive
    trait = loyal
    trait = hashishiyah # PLACEHOLDER smoker
   

    1006.5.23 = {
        birth = yes
    }
}

tip_0005 = { # Camellia Tip
    name = "Camellia"
    dynasty = dynasty_tip
    culture = hillfoot_halfling
    religion = small_temple
    father = tip_0003 # Lord Crovan Tip, Count of Tipney
    mother = small_0004 # Pepper
    female = yes

    trait = race_halfling
    trait = callous
    trait = brave
    trait = rowdy
    trait = hashishiyah # PLACEHOLDER smoker

    1009.2.15 = {
        birth = yes
    }
    1022.1.1 = {
        effect = {
            set_relation_rival = character:small_0004 # Pepper
            set_relation_rival = character:tip_0006 # Kent Tip
        }
    }
}

tip_0006 = { # Kent Tip
    name = "Kent"
    dynasty = dynasty_tip
    culture = hillfoot_halfling
    religion = small_temple
    father = tip_0003 # Lord Crovan Tip, Count of Tipney
    mother = small_0004 # Pepper

    trait = race_halfling
    trait = wheezing
    trait = trusting

    1012.3.4 = {
        birth = yes
        effect = {
            set_relation_guardian = character:small_0004 # Pepper
        }
    }
}

tip_0007 = { # Marianna Tip
    name = "Marianna"
    dynasty = dynasty_tip
    culture = hillfoot_halfling
    religion = small_temple
    father = tip_0002 # Dabbo Tip, Count of Tipney
    mother = small_0005 # Lita
    female = yes

    trait = race_halfling
    trait = education_learning_3
    trait = calm
    trait = fickle
    trait = forgiving
    trait = lifestyle_mystic
    trait = theologian
    trait = hashishiyah # PLACEHOLDER smoker

    990.7.23 = {
        birth = yes
    }
    1022.1.1 = {
        add_trait_xp = {
              trait = lifestyle_mystic
              value = 50  
        }
    }
}

####################
# Hillfoot Lowborn #
####################

small_0001 = { # Esmeralda
    name = "Esmeralda"
    # lowborn
    culture = hillfoot_halfling
    religion = small_temple
    female = yes

    trait = race_halfling

    942.3.11 = {
        birth = yes
    }
    985.8.13 = {
        death= yes
    }
}

small_0002 = { # Lalia
    name = "Lalia"
    # lowborn
    culture = hillfoot_halfling
    religion = small_temple
    female = yes

    trait = race_halfling
    trait = education_stewardship_3
    trait = ambitious
    trait = impatient
    trait = compassionate
    trait = family_first
    trait = physique_good_3

    947.7.21 = {
        birth = yes
    }
}

small_0003 = { # Barbara
    name = "Barbara"
    # lowborn
    culture = hillfoot_halfling
    religion = small_temple
    female = yes

    trait = race_halfling
    trait = education_stewardship_2
    trait = brave
    trait = callous
    trait = greedy
    trait = adventurer

    981.9.23 = {
        birth = yes
    }
}

small_0004 = { # Pepper
    name = "Pepper"
    # lowborn
    culture = hillfoot_halfling
    religion = small_temple
    female = yes

    trait = race_halfling
    trait = education_stewardship_3
    trait = stubborn
    trait = brave
    trait = honest
    trait = family_first
    trait = shrewd

    987.11.10 = {
        birth = yes
    }
}

small_0005 = { # Lita
    name = "Lita"
    # lowborn
    culture = hillfoot_halfling
    religion = small_temple
    female = yes
    trait = race_halfling

    968.5.21 = {
        birth = yes
    }

    1004.9.12 = { # PLACEHOLDER WotSK
        death = yes
    }
}

small_0006 = { # Petunia
    name = "Petunia"
    # lowborn
    culture = hillfoot_halfling
    religion = small_temple

    trait = race_halfling

    990.11.18 = {
        birth = yes
    }

    1006.12.9 = { # PLACEHOLDER WotSK
        death = yes
    }
}

##########################################
######### KINGDOM OF CIDERFIELD ##########
##########################################

##################
# House Pearmain #
##################

pearmain_0001 = { # King Pomard Pearmain, King of Ciderfield, Count of Newcobble
    name = "Pomard"
    dynasty = dynasty_pearmain
    culture = ciderfoot_halfling
    religion = small_temple

    trait = race_halfling

    490.6.5 = {
        birth = yes
    }
    560.7.19 = {
        death = yes
    }
}

###################
# House Appleseed #
###################

appleseed_0001 = { # Lord Reddel Appleseed, Duke of Appleton, Count of Appleton & Littlebrook
    name = "Reddel"
    dynasty_house = house_appleseed
    culture = ciderfoot_halfling
    religion = small_temple

    trait = race_halfling

    970.11.20 = {
        birth = yes
    }
    # TODO add spouse
    1005.1.14 = {
        death = yes
    }
}

appleseed_0002 = { # Malia Appleseed
    name = "Malia"
    dynasty_house = house_appleseed
    culture = ciderfoot_halfling
    religion = small_temple
    father = appleseed_0001 # Lord Reddel Appleseed, Duke of Appleton, Count of Appleton & Littlebrook

    trait = race_halfling

    992.3.28 = {
        birth = yes
    }
}

appleseed_0003 = { # Gala Appleseed
    name = "Gala"
    dynasty_house = house_appleseed
    culture = ciderfoot_halfling
    religion = small_temple
    female = yes
    father = appleseed_0001 # Lord Reddel Appleseed, Duke of Appleton, Count of Appleton & Littlebrook

    trait = race_halfling
    trait = education_intrigue_2
    trait = ambitious
    trait = gregarious
    trait = arbitrary
    trait = lifestyle_reveler

    994.12.1 = {
        birth = yes
    }
    1022.1.1 = {
        add_trait_xp = {
            trait = lifestyle_reveler
            value = 50
        }
    }
}

appleseed_0004 = { # Lord Jon Appleseed, Duke of Appleton, Count of Appleton & Littlebrook
    name = "Jon"
    dynasty_house = house_appleseed
    culture = ciderfoot_halfling
    religion = small_temple
    father = appleseed_0001 # Lord Reddel Appleseed, Duke of Appleton, Count of Appleton & Littlebrook

    trait = race_halfling
    trait = education_diplomacy_2
    trait = just
    trait = honest
    trait = arrogant

    997.4.5 = {
        birth = yes
    }
    1014.6.2 = {
        add_spouse = cowkeeper_0003 # Maisy Cowkeeper
    }
}

appleseed_0005 = { # Cid Appleseed
    name = "Cid"
    dynasty_house = house_appleseed
    culture = ciderfoot_halfling
    religion = small_temple
    father = appleseed_0004 # Lord Jon Appleseed, Duke of Appleton, Count of Appleton & Littlebrook
    mother = cowkeeper_0003 # Maisy Cowkeeper

    trait = race_halfling

    1015.7.1 = {
        birth = yes
    }
}

appleseed_0006 = { # Honnic Appleseed
    name = "Honnic"
    dynasty_house = house_appleseed
    culture = ciderfoot_halfling
    religion = small_temple
    father = appleseed_0004 # Lord Jon Appleseed, Duke of Appleton, Count of Appleton & Littlebrook
    mother = cowkeeper_0003 # Maisy Cowkeeper

    trait = race_halfling
    trait = twin

    1019.9.1 = {
        birth = yes
    }
}

appleseed_0007 = { # Pippin Appleseed
    name = "Pippin"
    dynasty_house = house_appleseed
    culture = ciderfoot_halfling
    religion = small_temple
    father = appleseed_0004 # Lord Jon Appleseed, Duke of Appleton, Count of Appleton & Littlebrook
    mother = cowkeeper_0003 # Maisy Cowkeeper

    trait = race_halfling
    trait = twin

    1019.9.1 = {
        birth = yes
    }
}

appleseed_0008 = { # Macin Appleseed
    name = "Macin"
    dynasty_house = house_appleseed
    culture = ciderfoot_halfling
    religion = small_temple
    father = appleseed_0001 # Lord Reddel Appleseed, Duke of Appleton, Count of Appleton & Littlebrook

    trait = race_halfling

    999.4.3 = {
        birth = yes
    }
}

appleseed_0009 = { # Nysmith Appleseed
    name = "Nysmith"
    dynasty_house = house_appleseed
    culture = ciderfoot_halfling
    religion = small_temple
    father = appleseed_0001 # Lord Reddel Appleseed, Duke of Appleton, Count of Appleton & Littlebrook

    trait = race_halfling

    1002.7.2 = {
        birth = yes
    }
}

appleseed_0010 = { # Jack Appleseed
    name = "Jack"
    dynasty_house = house_appleseed
    culture = ciderfoot_halfling
    religion = small_temple
    father = appleseed_0001 # Lord Reddel Appleseed, Duke of Appleton, Count of Appleton & Littlebrook

    trait = race_halfling

    1004.6.17 = {
        birth = yes
    }
}

##################
# House Peartree #
##################

peartree_0001 = { # Lord Nash Peartree, Duke of Pearview, Count of Pearview & Newcobble
    name = "Nash"
    dynasty_house = house_peartree
    culture = ciderfoot_halfling
    religion = small_temple

    trait = race_halfling

    961.4.14 = {
        birth = yes
    }
    1006.6.20 = { # PLACEHOLDER WotSK
        death = yes
    }
}

peartree_0002 = { # Lord Frederic Peartree, Duke of Pearview, Count of Pearview & Newcobble
    name = "Frederic"
    dynasty_house = house_peartree
    culture = ciderfoot_halfling
    religion = small_temple
    father = peartree_0001 # Lord Nash Peartree, Duke of Pearview, Count of Pearview & Newcobble

    trait = race_halfling
    trait = education_diplomacy_2
    trait = fickle
    trait = gregarious

    995.3.4 = {
        birth = yes
    }
    1013.1.1 = {
        add_spouse = butters_0002 # Wortha Butters
    }
}

peartree_0003 = { # Perrin Peartree
    name = "Perrin"
    dynasty_house = house_peartree
    culture = ciderfoot_halfling
    religion = small_temple
    father = peartree_0002 # Lord Frederic Peartree, Duke of Pearview, Count of Pearview & Newcobble
    mother = butters_0002 # Wortha Butters

    trait = race_halfling
    trait = rowdy

    1015.2.1 = {
        birth = yes
    }
}

peartree_0004 = { # Partricia Peartree
    name = "Partricia"
    dynasty_house = house_peartree
    culture = ciderfoot_halfling
    religion = small_temple
    father = peartree_0002 # Lord Frederic Peartree, Duke of Pearview, Count of Pearview & Newcobble
    mother = butters_0002 # Wortha Butters
    female = yes

    trait = race_halfling
    trait = charming

    1017.1.13 = {
        birth = yes
    }
}

peartree_0005 = { # Edith Peartree
    name = "Edith"
    dynasty_house = house_peartree
    culture = ciderfoot_halfling
    religion = small_temple
    father = peartree_0002 # Lord Frederic Peartree, Duke of Pearview, Count of Pearview & Newcobble
    mother = butters_0002 # Wortha Butters
    female = yes

    trait = race_halfling

    1020.5.10 = {
        birth = yes
    }
}

peartree_0006 = { # Forelle Peartree
    name = "Forelle"
    dynasty_house = house_peartree
    culture = ciderfoot_halfling
    religion = small_temple
    father = peartree_0001 # Lord Nash Peartree, Duke of Pearview, Count of Pearview & Newcobble
    female = yes

    trait = race_halfling

    997.1.1 = {
        birth = yes
    }
}

peartree_0007 = { # Anjo Peartree
    name = "Anjo"
    dynasty_house = house_peartree
    culture = ciderfoot_halfling
    religion = small_temple
    father = peartree_0001 # Lord Nash Peartree, Duke of Pearview, Count of Pearview & Newcobble

    trait = race_halfling
    trait = education_intrigue_4

    998.12.1 = {
        birth = yes
    }
    1021.12.2 = {
        employer = norley_0001 # Lord Lan Norley, Count of Norley
        set_relation_friend = character:peartree_0009 # Concordia Peartree
    }
}

peartree_0008 = { # Bosco Peartree
    name = "Bosco"
    dynasty_house = house_peartree
    culture = ciderfoot_halfling
    religion = small_temple
    father = peartree_0001 # Lord Nash Peartree, Duke of Pearview, Count of Pearview & Newcobble

    trait = race_halfling
    trait = education_stewardship_4
    trait = twin

    998.12.1 = {
        birth = yes
    }
    1021.12.2 = {
        employer = norley_0001 # Lord Lan Norley, Count of Norley
        set_relation_friend = character:peartree_0009 # Concordia Peartree
    }
}

peartree_0009 = { # Concordia Peartree
    name = "Concordia"
    dynasty_house = house_peartree
    culture = ciderfoot_halfling
    religion = small_temple
    father = peartree_0001 # Lord Nash Peartree, Duke of Pearview, Count of Pearview & Newcobble
    female = yes

    trait = race_halfling
    trait = education_diplomacy_3
    trait = diligent
    trait = lifestyle_reveler

    1000.6.1 = {
        birth = yes
    }
    # Commented out to run event once
    # set_relation_friend = character:peartree_0007 # Anjo Peartree
    # set_relation_friend = character:peartree_0008 # Bosco Peartree
}

#################
# House Butters #
#################

butters_0001 = { # Lord Norman “the Butterball” Butters, Count of Butterburn
    name = "Norman"
    dynasty = dynasty_butters
    culture = ciderfoot_halfling
    religion = small_temple

    trait = race_halfling
    trait = education_diplomacy_3
    trait = gluttonous
    trait = craven
    trait = gregarious

    982.4.17 = {
        birth = yes
    }
    1022.1.1 = {
        give_nickname = nick_the_butterball
    }
}

butters_0002 = { # Wortha Butters
    name = "Wortha"
    dynasty = dynasty_butters
    culture = ciderfoot_halfling
    religion = small_temple
    father = butters_0001 # Lord Norman “the Butterball” Butters, Count of Butterburn
    female = yes

    trait = race_halfling
    trait = education_intrigue_2
    trait = gluttonous
    trait = deceitful
    trait = compassionate

    1001.11.15 = {
        birth = yes
    }
}

butters_0003 = { # Lando Butters
    name = "Lando"
    dynasty = dynasty_butters
    culture = ciderfoot_halfling
    religion = small_temple
    father = butters_0001 # Lord Norman “the Butterball” Butters, Count of Butterburn

    trait = race_halfling
    trait = education_learning_2
    trait = fickle
    trait = lustful
    trait = content

    1004.9.29 = {
        birth = yes
    }
}

butters_0004 = { # Blanche Butters
    name = "Blanche"
    dynasty = dynasty_butters
    culture = ciderfoot_halfling
    religion = small_temple
    father = butters_0001 # Lord Norman “the Butterball” Butters, Count of Butterburn
    female = yes

    trait = race_halfling
    trait = education_diplomacy_2
    trait = gluttonous
    trait = gregarious
    trait = trusting
    
    1006.11.22 = {
        birth = yes
    }
}

###################
# House Cowkeeper #
###################

cowkeeper_0001 = { # Lord Holman Cowkeeper, Count of Cowskeep
    name = "Holman"
    dynasty_house = house_cowkeeper
    culture = ciderfoot_halfling
    religion = small_temple

    trait = race_halfling

    955.12.30 = {
        birth = yes
    }
}

cowkeeper_0002 = { # Lord Willam “the Auroch” Cowkeeper, Count of Cowskeep
    name = "Willam"
    dynasty_house = house_cowkeeper
    culture = ciderfoot_halfling
    religion = small_temple
    father = cowkeeper_0001 # Lord Holman Cowkeeper, Count of Cowskeep

    trait = race_halfling
    trait = education_martial_2
    trait = brave
    trait = stubborn
    trait = gregarious
    trait = strong

    975.10.1 = {
        birth = yes
    }
    995.1.15 = {
        give_nickname = nick_the_auroch
        add_spouse = small_0008 # Calassa
    }
}

cowkeeper_0003 = { # Maisy Cowkeeper
    name = "Maisy"
    dynasty_house = house_cowkeeper
    culture = ciderfoot_halfling
    religion = small_temple
    father = cowkeeper_0002 # Lord Willam “the Auroch” Cowkeeper, Count of Cowskeep
    mother = small_0008 # Calassa
    female = yes

    trait = race_halfling
    trait = education_diplomacy_1
    trait = stubborn
    trait = impatient
    trait = compassionate

    998.2.4 = {
        birth = yes
    }
}

cowkeeper_0004 = { # Norris Cowkeeper
    name = "Norris"
    dynasty_house = house_cowkeeper
    culture = ciderfoot_halfling
    religion = small_temple
    father = cowkeeper_0002 # Lord Willam “the Auroch” Cowkeeper, Count of Cowskeep
    mother = small_0008 # Calassa

    trait = race_halfling
    trait = education_martial_3
    trait = brave
    trait = arbitrary
    trait = fickle
    trait = strong

    1000.12.22 = {
        birth = yes
    }
}

cowkeeper_0005 = { # Almo Cowkeeper
    name = "Almo"
    dynasty_house = house_cowkeeper
    culture = ciderfoot_halfling
    religion = small_temple
    father = cowkeeper_0001 # Lord Holman Cowkeeper, Count of Cowskeep

    trait = race_halfling
    trait = education_learning_2
    trait = brave
    trait = fickle
    trait = ambitious
    trait = adventurer

    984.6.5 = {
        birth = yes
    }
    1004.3.20 = {
        add_secret = {
            type = secret_witch
        }
    }
}

#####################
# Ciderfoot Lowborn #
#####################

small_0007 = { # Samuel
    name = "Samuel"
    # lowborn
    culture = ciderfoot_halfling
    religion = small_temple

    trait = race_halfling
    trait = lifestyle_reveler

    980.10.27 = {
        birth = yes
    }
    1022.1.1 = {
        add_trait_xp = {
            trait = lifestyle_reveler
            value = 50
        }
    }
}

small_0008 = { # Calassa
    name = "Calassa"
    # lowborn
    culture = ciderfoot_halfling
    religion = small_temple
    female = yes

    trait = race_halfling

    975.1.14 = {
        birth = yes
    }
}

# small_0009 = { # Willamina }

##########################################
######### KINGDOM OF ROYSFORT ############
##########################################

##################
# House Roysfort #
##################

roysfort_0001 = { # King PLACEHOLDER Roysfort, King of Roysfort, Duke of Roysfort, Count of Roysfort & Greenberry
    name = "PLACEHOLDER"
    dynasty = dynasty_roysfort
    culture = roysfoot_halfling
    religion = small_temple

    trait = race_halfling
    
    940.2.25 = {
        birth = yes
    }

    977.6.29 = { # PLACEHOLDER Pre-WotSK
        death = yes
    }
}

roysfort_0002 = { # King Criston Roysfort, King of Roysfort, Duke of Roysfort, Count of Roysfort & Greenberry
    name = "Criston"
    dynasty = dynasty_roysfort
    culture = roysfoot_halfling
    religion = small_temple
    father = roysfort_0001 # King PLACEHOLDER Roysfort, King of Roysfort, Duke of Roysfort, Count of Roysfort & Greenberry

    trait = race_halfling

    967.3.30 = {
        birth = yes
    }
    1002.11.24 = { # PLACEHOLDER WotSK
        death = yes
    }
}

roysfort_0003 = { # King Barton Roysfort, King of Roysfort, Duke of Roysfort, Count of Roysfort & Greenberry
    name = "Barton"
    dynasty = dynasty_roysfort
    culture = roysfoot_halfling
    religion = small_temple
    father = roysfort_0002 # King Criston Roysfort, King of Roysfort, Duke of Roysfort, Count of Roysfort & Greenberry
    
    trait = race_halfling
    trait = education_stewardship_3
    trait = paranoid
    trait = stubborn
    trait = zealous

    988.9.25 = {
        birth = yes
    }
}

roysfort_0004 = { # Everard Roysfort
    name = "Everard"
    dynasty = dynasty_roysfort
    culture = roysfoot_halfling
    religion = small_temple
    father = roysfort_0003 # King Barton Roysfort, King of Roysfort, Duke of Roysfort, Count of Roysfort & Greenberry

    trait = race_halfling
    trait = paranoid
    trait = shy

    1010.6.24 = {
        birth = yes
    }
}

roysfort_0005 = { # Arnold Roysfort
    name = "Arnold"
    dynasty = dynasty_roysfort
    culture = roysfoot_halfling
    religion = small_temple
    father = roysfort_0002 # King Criston Roysfort, King of Roysfort, Duke of Roysfort, Count of Roysfort & Greenberry

    trait = race_halfling
    trait = education_martial_3
    trait = brave
    trait = stubborn
    trait = vengeful

    995.12.1 = {
        birth = yes
    }
}

roysfort_0006 = { # Adeline Roysfort
    name = "Adeline"
    dynasty = dynasty_roysfort
    culture = roysfoot_halfling
    religion = small_temple
    female = yes
    father = roysfort_0001 # King PLACEHOLDER Roysfort, King of Roysfort, Duke of Roysfort, Count of Roysfort & Greenberry

    trait = race_halfling

    947.4.21 = {
        birth = yes
    }
    1003.6.13 = { # PLACEHOLDER WotSK
        death = yes
    }
}

###################
# House Marchfoot #
###################

marchfoot_0001 = { # Lord Awstyn Marchfoot, former Count of Smallmarch
    name = "Awstyn"
    dynasty = dynasty_marchfoot
    culture = roysfoot_halfling
    religion = small_temple

    trait = race_halfling
    trait = education_diplomacy_2
    trait = trusting
    trait = just
    trait = zealous

    973.12.8 = {
        birth = yes
    }
    1016.11.29 = {
        death = yes
    }
}

marchfoot_0002 = { # Lord Anton Marchfoot, Count of Smallmarch
    name = "Anton"
    dynasty = dynasty_marchfoot
    culture = roysfoot_halfling
    religion = small_temple
    father = marchfoot_0001 # Lord Awstyn Marchfoot, former Count of Smallmarch

    trait = race_halfling
    trait = education_martial_2
    trait = gregarious
    trait = zealous
    trait = fickle
    trait = lifestyle_reveler

    996.3.20 = {
        birth = yes
    }
}

marchfoot_0003 = { # Artor “the Smallknight” Marchfoot
    name = "Artor"
    dynasty = dynasty_marchfoot
    culture = roysfoot_halfling
    religion = small_temple
    father = marchfoot_0001 # Lord Awstyn Marchfoot, former Count of Smallmarch

    trait = race_halfling
    trait = education_martial_3 
    trait = gregarious
    trait = impatient
    trait = brave
    trait = lifestyle_blademaster

    1000.2.7 = {
        birth = yes
    }
    1022.1.1 = {
        give_nickname = nick_the_smallknight
    }
}

##################
# House wheatling #
##################

wheatling_0001 = { # Lord Galin wheatling, Duke of Bigwheat, Count of Bigwheat & Middlewood
    name = "Galin"
    dynasty = dynasty_wheatling
    culture = roysfoot_halfling
    religion = small_temple

    trait = race_halfling

    939.2.7 = {
        birth = yes
    }
    975.9.28 = {
        death = yes
    }
}

wheatling_0002 = { # Lord Dustin wheatling, Duke of Bigwheat, Count of Bigwheat
    name = "Dustin"
    dynasty = dynasty_wheatling
    culture = roysfoot_halfling
    religion = small_temple
    father = wheatling_0001 # Lord Galin wheatling

    trait = race_halfling

    969.2.20 = {
        birth = yes
    }
    996.7.19 = {
        add_spouse = small_0010 # Dora
    }
    1013.7.12 = {
        death = yes
    }
}

wheatling_0003 = { # Lord Kelgo wheatling, Duke of Bigwheat, Count of Bigwheat
    name = "Kelgo"
    dynasty = dynasty_wheatling
    culture = roysfoot_halfling
    religion = small_temple
    father = wheatling_0002 # Lord Dustin wheatling, Duke of Bigwheat, Count of Bigwheat
    mother = small_0010 # Dora

    trait = race_halfling
    trait = education_learning_1
    trait = temperate
    trait = zealous
    trait = chaste
    trait = athletic

    999.7.17 = {
        birth = yes
    }
}

wheatling_0004 = { # Lord Robin wheatling, Count of Middlewood
    name = "Robin"
    dynasty = dynasty_wheatling
    culture = roysfoot_halfling
    religion = small_temple
    father = wheatling_0001 # Lord Galin wheatling

    trait = race_halfling
    trait = education_stewardship_2
    trait = trusting
    trait = compassionate
    trait = honest

    972.7.26 = {
        birth = yes
    }
    998.2.1 = {
        add_spouse = middlewood_0001 # Briar Middlewood
    }
    1021.9.15 = {
        death = {
            death_reason = death_murder
            killer = middlewood_0001 # Briar Middlewood
        }
    }
}

wheatling_0005 = { # Lady Minnie wheatling, Countess of Middlewood
    name = "Minnie"
    female = yes
    dynasty = dynasty_wheatling
    culture = roysfoot_halfling
    religion = small_temple
    father = wheatling_0004 # Lord Robin wheatling, Count of Middlewood
    mother = middlewood_0001 # Briar Middlewood

    trait = race_halfling
    trait = education_learning_3
    trait = temperate
    trait = diligent
    trait = shy
    trait = lifestyle_physician

    1004.6.3 = {
        birth = yes
    }
    1022.1.1 = {
        add_trait_xp = {
            trait = lifestyle_physician
            value = 50
        }
    }
}

####################
# House Middlewood #
####################

middlewood_0001 = { # Briar Middlewood
    name = "Briar"
    dynasty = dynasty_middlewood
    culture = roysfoot_halfling
    religion = small_temple
    female = yes

    trait = race_halfling
    trait = education_intrigue_3
    trait = paranoid
    trait = lustful
    trait = shy
    trait = lifestyle_herbalist

    975.1.7 = {
        birth = yes
    }
    992.4.22 = {
        add_spouse = small_0011 # Jack
        add_secret = {
            type = secret_witch
        }
    }
    997.1.1 = {
        remove_spouse = small_0011 # Jack
    }
    1021.9.15 = {
        add_secret = {
            type = secret_murder
            target = character:wheatling_0004 # Lord Robin wheatling, Count of Middlewood
        }
    }
}

middlewood_0002 = { # Nessa Middlewood
    name = "Nessa"
    dynasty = dynasty_middlewood
    culture = roysfoot_halfling
    religion = small_temple
    father = small_0011 # Jack
    mother = middlewood_0001 # Briar Middlewood
    female = yes

    trait = race_halfling

    993.5.1 = {
        birth = yes
    }
    1009.6.16 = {
        add_secret = {
            type = secret_witch
        }
    }
}

middlewood_0003 = { # Bosco Middlewood
    name = "Bosco"
    dynasty = dynasty_middlewood
    culture = roysfoot_halfling
    religion = small_temple
    father = small_0011 # Jack
    mother = middlewood_0001 # Briar Middlewood

    trait = race_halfling

    994.3.31 = {
        birth = yes
    }
}

middlewood_0004 = { # Casta Middlewood
    name = "Casta"
    dynasty = dynasty_middlewood
    culture = roysfoot_halfling
    religion = small_temple
    father = small_0011 # Jack
    mother = middlewood_0001 # Briar Middlewood
    female = yes

    trait = race_halfling

    995.2.13 = {
        birth = yes
    }
    1011.2.3 = {
        add_secret = {
            type = secret_witch
        }
    }
}

###################
# Royfoot Lowborn #
###################

small_0010 = { # Dora
    name = "Dora"
    # lowborn
    culture = roysfoot_halfling
    religion = small_temple
    female = yes

    trait = race_halfling

    971.4.30 = {
        birth = yes
    }
}

small_0011 = { # Jack
    name = "Jack"
    # lowborn
    culture = roysfoot_halfling
    religion = small_temple

    trait = race_halfling

    976.8.2 = {
        birth = yes
    }

    997.9.21 = {
        death = yes
    }
}

#######################################
######### KINGDOM OF ELKMARCH #########
#######################################

#################
# House Hardoak #
#################

hardoak_0001 = { # Queen Sybille Hardoak, Queen of Elkmarch
    name = "Sybille"
    dynasty = dynasty_hardoak
    culture = oakfoot_halfling
    religion = small_temple
    female = yes
    dna = 97_sybille_locke

    trait = race_halfling
    trait = education_diplomacy_3 
    trait = brave
    trait = stubborn
    trait = compassionate
    trait = beauty_bad_1
    trait = intellect_good_2

    988.7.14 = {
        birth = yes
        effect = {
			add_character_flag = has_scripted_appearance
		}
    }
    1013.11.7 = {
        effect = {
            set_relation_rival = character:43 # Eustace sil Uelaire (declared war)
            reverse_add_opinion = {
				modifier = declared_war
				target = character:43
			}
        }
    }
}

###################
# House Thornfoot #
###################

thornfoot_0001 = { # Buck Thornfoot
    name = "Buck"
    dynasty = dynasty_thornfoot
    culture = oakfoot_halfling
    religion = small_temple

    trait = race_halfling

    953.2.10 = {
        birth = yes
    }
    999.5.1 = { # PLACEHOLDER Pre-WotSK
        death = yes
    }
}

thornfoot_0002 = { # Elias Thornfoot, Count of the Approach
    name = "Elias"
    dynasty = dynasty_thornfoot
    culture = oakfoot_halfling
    religion = small_temple
    father = thornfoot_0001 # Buck Thornfoot

    trait = race_halfling
    trait = education_martial_2
    trait = brave
    trait = impatient
    trait = gregarious
    trait = lifestyle_hunter

    994.6.8 = {
        birth = yes
    }
    1010.1.1 = {
        add_spouse = elkhorn_0003 # Ayla Elkhorn
    }
    1015.5.1 = {
        effect = {
            set_relation_rival = character:thornfoot_0005 # Willow Thornfoot
        }
    }
    1022.1.1 = {
        employer = hardoak_0001 # Queen Sybille Hardoak, Queen of Elkmarch
        give_council_position = councillor_marshal
    }
}

thornfoot_0003 = { # Oren Thornfoot
    name = "Oren"
    dynasty = dynasty_thornfoot
    culture = oakfoot_halfling
    religion = small_temple
    father = thornfoot_0002 # Elias Thornfoot, Count of the Approach
    mother = elkhorn_0003 # Ayla Elkhorn

    trait = race_halfling
    trait = bossy

    1013.10.2 = {
        birth = yes
    }
}

thornfoot_0004 = { # Lennoc Thornfoot
    name = "Lennoc"
    dynasty = dynasty_thornfoot
    culture = oakfoot_halfling
    religion = small_temple
    father = thornfoot_0002 # Elias Thornfoot, Count of the Approach
    mother = elkhorn_0003 # Ayla Elkhorn

    trait = race_halfling
    trait = strong

    1017.3.25 = {
        birth = yes
    }
}

thornfoot_0005 = { # Willow Thornfoot
    name = "Willow"
    dynasty = dynasty_thornfoot
    culture = oakfoot_halfling
    religion = small_temple
    father = thornfoot_0001 # Buck Thornfoot

    trait = race_halfling
    trait = education_martial_3
    trait = brave
    trait = vengeful
    trait = deceitful # cunning
    trait = lifestyle_blademaster
    trait = one_eyed

    997.5.1 = {
        birth = yes
    }
    # set_relation_rival = character:thornfoot_0002 # Elias Thornfoot, Count of the Approach
}

#################
# House Elkhorn #
#################

elkhorn_0001 = { # Fordo Elkhorn, Count of (Elkwood? Twoforks?) PLACEHOLDER
    name = "Fordo"
    dynasty = dynasty_elkhorn
    culture = oakfoot_halfling
    religion = small_temple

    trait = race_halfling

    966.1.1 = {
        birth = yes
    }

    1001.1.1 = {
        death = yes
    }
}

elkhorn_0002 = { # PLACEHOLDER Elkhorn, Count of (Elkwood? Twoforks?)
    name = "PLACEHOLDER"
    dynasty = dynasty_elkhorn
    culture = oakfoot_halfling
    religion = small_temple
    father = elkhorn_0001 # Fordo Elkhorn, Count of (Elkwood? Twoforks?)

    trait = race_halfling

    993.1.1 = {
        birth = yes
    }
    1010.1.1 = {
        death = yes
    }
}

elkhorn_0003 = { # Ayla Elkhorn
    name = "Ayla"
    dynasty = dynasty_elkhorn
    culture = oakfoot_halfling
    religion = small_temple
    female = yes
    father = elkhorn_0001 # Fordo Elkhorn, Count of (Elkwood? Twoforks?)

    trait = race_halfling
    trait = education_stewardship_1
    trait = content
    trait = gluttonous
    trait = gregarious
    trait = lifestyle_reveler
    trait = comfort_eater

    994.6.8 = {
        birth = yes
    }
    1014.1.1 = {
        add_spouse = thornfoot_0002 # Elias Thornfoot, Count of the Approach
    }
}

#################
# House Bymouth #
#################

bymouth_0001 = { # Malmo Bymouth, former Duke of Minsford (now Uelaire)
    name = "Malmo"
    dynasty = dynasty_bymouth
    culture = oakfoot_halfling
    religion = small_temple

    trait = race_halfling

    990.10.8 = {
        birth = yes
    }
    1022.1.1 = {
        employer = hardoak_0001 # Queen Sybille Hardoak, Queen of Elkmarch
        add_pressed_claim = title:d_uelaire
        add_pressed_claim = title:c_uelaire
        add_pressed_claim = title:c_highwind
    }
}

#################
# House Newleaf #
#################

newleaf_0001 = { # Nook Newleaf, former Count of Newacre
    name = "Nook"
    dynasty = dynasty_newleaf
    culture = oakfoot_halfling
    religion = small_temple

    trait = race_halfling

    985.12.8 = {
        birth = yes
    }
    1022.1.1 = {
        employer = hardoak_0001 # Queen Sybille Hardoak, Queen of Elkmarch
        add_pressed_claim = title:c_newacre
    }
}

##################
# House Mereside #
##################

mereside_0001 = { # Giliam Mereside
    name = "Giliam"
    dynasty = dynasty_mereside
    culture = oakfoot_halfling
    religion = small_temple

    trait = race_halfling

    983.9.11 = {
        birth = yes
    }
    1022.1.1 = {
        employer = hardoak_0001 # Queen Sybille Hardoak, Queen of Elkmarch
        add_pressed_claim = title:c_westmere
    }
}

#######################################
########## KINGDOM OF BEEPECK #########
#######################################

#################
# House sil Bee #
#################

sil_bee_0001 = { # Brayden síl Bee, Mayor of Beepeck
    name = "Brayden"
    dynasty = dynasty_bee
    culture = beefoot_halfling
    religion = small_temple

    trait = race_halfling
    trait = education_stewardship_4

    979.10.29 = {
        birth = yes
    }
}

##################
# House sil Peck #
##################

sil_peck_0001 = { # Ernst síl Peck, former Mayor of Beepeck
    name = "Ernst"
    dynasty = dynasty_peck
    culture = beefoot_halfling
    religion = small_temple

    trait = race_halfling
    trait = education_diplomacy_3

    964.1.16 = {
        birth = yes
    }
}

sil_peck_0002 = { # Samuel síl Peck, Baron of Hiveshold
    name = "Samuel"
    dynasty = dynasty_peck
    culture = beefoot_halfling
    religion = small_temple
    father = sil_peck_0001 # Ernst síl Peck, former Mayor of Beepeck

    trait = race_halfling
    trait = education_diplomacy_1

    986.7.19 = {
        birth = yes
    }
}

sil_peck_0003 = { # Belladonna síl Peck
    name = "Belladonna"
    dynasty = dynasty_peck
    culture = beefoot_halfling
    religion = small_temple
    female = yes
    father = sil_peck_0001 # Ernst síl Peck, former Mayor of Beepeck

    trait = race_halfling
    trait = education_intrigue_3

    989.9.8 = {
        birth = yes
    }
    1022.1.1 = {
        employer = cliffman_0003 # Rogerc II Cliffman, Duke of Neckliffe
    }
}

####################
# House Bumblefoot #
####################

bumblefoot_0001 = { # Caffren Bumblefoot
    name = "Caffren"
    dynasty = dynasty_bumblefoot
    culture = beefoot_halfling
    religion = small_temple

    trait = race_halfling

    992.4.26 = {
        birth = yes
    }
}

##################
# House Foolfoot #
##################

foolfoot_0001 = { # Rory Foolfoot
    name = "Rory"
    dynasty_house = house_foolfoot
    culture = beefoot_halfling
    religion = small_temple

    trait = race_halfling
    trait = education_learning_4

    997.8.30 = {
        birth = yes
    }
}

###################
# House Wintersun #
###################

wintersun_0001 = { # Lord Ordric Wintersun, Count of Orston
    name = "Ordric"
    dynasty = dynasty_wintersun
    culture = beefoot_halfling
    religion = small_temple

    trait = race_halfling
    trait = education_learning_3
    trait = zealous
    trait = chaste
    trait = content

    979.6.1 = {
        birth = yes
    }
}

###################
# Beefoot Lowborn #
###################

small_0012 = { # Caradoc
    name = "Caradoc"
    religion = small_temple
    culture = beefoot_halfling

    983.12.15 = {
        birth = yes
    }
}

############################################
########## OTHER HALFLINGS OF NOTE #########
############################################

##################
# House Downroot #
##################

downroot_0001 = { # Lord Teagan Downroot, Count of Manerd
    name = "Teagan"
    dynasty = dynasty_downroot
    religion = small_temple
    culture = ciderfoot_halfling

    trait = education_stewardship_1
    trait = content
    trait = humble
    trait = shy

    990.9.16 = {
        birth = yes
    }
}

###################
# House Shrooming #
###################

shrooming_0001 = { # Mayor Perigor Shrooming, Mayor of PLACEHOLDER Indlebury city holding
    name = "Perigor"
    dynasty = dynasty_shrooming
    religion = cult_of_the_dame
    culture = moonfoot_halfling

    trait = education_stewardship_2
    trait = content
    trait = paranoid
    trait = diligent

    989.6.16 = {
        birth = yes
    }
}