﻿# Anbennar: commented vanilla stuff

# On actions for war events, triggered automatically by the game

# called for wars after being transferred to a new defender
# root is the primary attacker
# scope:war is the war
# scope:defender is the new defender

on_war_transferred = {
	events = {
		war_event.2001 # allows attacker to back out of the war
	}
}

# called for people joining as a secondary attacker or defender
# root is the joiner
# scope:war is the war

on_join_war_as_secondary = {
	effect = {
		save_scope_as = war_joiner
		scope:war = {
			if = {
				limit = {
					is_attacker = root
				}
				primary_attacker = { save_scope_as = war_joiner_ally }
				primary_defender = { save_scope_as = war_joiner_enemy }
				root = {
					create_character_memory = {
						type = joined_allys_war
						
						participants = {
							ally = scope:war.primary_attacker
							enemy = scope:war.primary_defender
						}
					}
					scope:war.primary_attacker = {
						ordered_memory = {
							limit = {
								has_memory_type = offensive_war
								any_memory_participant = { this = scope:war.primary_defender }
							}
							order_by = memory_creation_date
							save_scope_as = war_memory
						}
					}
				}
			}
			else = {
				primary_defender = { save_scope_as = war_joiner_ally }
				primary_attacker = { save_scope_as = war_joiner_enemy }
				root = {
					create_character_memory = {
						type = joined_allys_war
						
						participants = {
							ally = scope:war.primary_defender
							enemy = scope:war.primary_attacker
						}
					}
					scope:war.primary_defender = {
						ordered_memory = {
							limit = {
								has_memory_type = defensive_war
								any_memory_participant = { this = scope:war.primary_attacker }
							}
							order_by = memory_creation_date
							save_scope_as = war_memory
						}
					}
				}
			}
			root = {
				ordered_memory = {
					limit = {
						has_memory_type = joined_allys_war
						any_memory_participant = { this = scope:war.primary_attacker }
						any_memory_participant = { this = scope:war.primary_defender }
					}
					order_by = memory_creation_date
					if = {
						limit = { exists = scope:war_memory.var:war_cb }
						copy_war_memory_casus_belli_effect = { MEMORY = scope:war_memory }
					}
					else = { set_war_memory_casus_belli_effect = yes }
					if = {
						limit = {
							root = { is_at_war_with = scope:war.primary_attacker }
						}
						set_variable = {
							name = war_ally
							value = scope:war.primary_defender
						}
					}
					else = {
						set_variable = {
							name = war_ally
							value = scope:war.primary_attacker
						}
					}
				}
				# If they're in an activity, let them decide whether or not to cancel 
				activity_on_war_declared_events_effect  = yes
				# BP2: Joining war and have an enemy's hostage
				if = {
					limit = { # Let attacker's go first
						NOT = {
							any_warden_hostage = { home_court ?= scope:war_joiner }
						}
					}
					trigger_event = { id = bp2_hostage_system.0120 days = 6 }
				}
			}
			# BP2: Have a hostage of a newly joined enemy
			every_war_participant = {
				limit = { is_at_war_with = scope:war_joiner }
				# Have a hostage of a newly joined enemy
				trigger_event = { id = bp2_hostage_system.0130 days = 6 }
			}
			# Enroute hostage invalidation
			scope:war_joiner = {
				if = {
					limit = {
						any_close_family_member = {
							is_travelling = yes
							var:hostage_travelling_to_warden ?= { is_at_war_with = scope:war_joiner }
						}
					}
					every_close_family_member = {
						limit = {
							is_travelling = yes
							var:hostage_travelling_to_warden ?= { is_at_war_with = scope:war_joiner }
						}
						save_scope_as = invalidated_hostage
						scope:war_joiner = {
							send_interface_toast = {
								type = event_toast_effect_neutral
								title = hostage_invalidated_during_travel_title
								left_icon = scope:invalidated_hostage
								right_icon = scope:invalidated_hostage.var:hostage_travelling_to_warden
								show_as_tooltip = {
									scope:invalidated_hostage.current_travel_plan = { cancel_travel_plan = yes }
								}
							}
						}
						scope:invalidated_hostage.var:hostage_travelling_to_warden = {
							send_interface_toast = {
								type = event_toast_effect_neutral
								title = hostage_invalidated_during_travel_title
								left_icon = scope:invalidated_hostage
								right_icon = scope:war_joiner
								scope:invalidated_hostage = {
									current_travel_plan = { cancel_travel_plan = yes }
									remove_variable = hostage_travelling_to_warden
								}
							}
						}
					}
				}
			}
			every_war_participant = {
				save_scope_as = participant
				if = {
					limit = {
						any_close_family_member = {
							is_travelling = yes
							var:hostage_travelling_to_warden ?= { is_at_war_with = scope:participant }
						}
					}
					every_close_family_member = {
						limit = {
							is_travelling = yes
							var:hostage_travelling_to_warden ?= { is_at_war_with = scope:participant }
						}
						save_scope_as = invalidated_hostage
						scope:participant = {
							send_interface_toast = {
								type = event_toast_effect_neutral
								title = hostage_invalidated_during_travel_title
								left_icon = scope:invalidated_hostage
								right_icon = scope:invalidated_hostage.var:hostage_travelling_to_warden
								show_as_tooltip = {
									scope:invalidated_hostage.current_travel_plan = { cancel_travel_plan = yes }
								}
							}
						}
						scope:invalidated_hostage.var:hostage_travelling_to_warden = {
							send_interface_toast = {
								type = event_toast_effect_neutral
								title = hostage_invalidated_during_travel_title
								left_icon = scope:invalidated_hostage
								right_icon = scope:participant
								scope:invalidated_hostage = {
									current_travel_plan = { cancel_travel_plan = yes }
									remove_variable = hostage_travelling_to_warden
								}
							}
						}
					}
				}
			}
		}
	}
	events = {
		war_event.3000 # Ally gets mad if you do not participate in their wars.
		religious_decision.0200 # Stop mediation
	}
}

# called when a war is started.
# same scopes are available in these events as in the CBs' on_declaration, this just fires for all CBs instead of a specific CB.

on_war_started = {
	effect = {
		scope:attacker = {
			if = {
				limit = {
					any_vassal_or_below = { is_ai = no }
				}
				every_vassal_or_below = {
					limit = { is_ai = no }
					send_interface_toast = {
						type = msg_war_declared_by_liege
						title = msg_war_declared_by_liege
						desc = msg_war_declared_by_liege_desc
						left_icon = scope:attacker
						right_icon = scope:defender
					}
				}
			}
			create_character_memory = {
				type = offensive_war
				
				participants = {
					other_party = scope:defender
				}
			}
			ordered_memory = {
				limit = {
					has_memory_type = offensive_war
					any_memory_participant = { this = scope:defender }
				}
				order_by = memory_creation_date
				save_scope_as = offensive_memory
				set_war_memory_casus_belli_effect = yes
			}
			# If they're in an activity, let them decide whether or not to cancel 
			activity_on_war_declared_events_effect  = yes
			# Achievements.
			## Track whether the player has ever started a war — for various pacifist achievements.
			if = {
				limit = { is_ai = no }
				set_global_variable = {
					name = player_declared_war
					value = yes
				}
			}
			# BP2 Attacker has defender's hostage
			if = {	
				limit = {
					any_warden_hostage = { home_court ?= scope:defender }
					# Let defenders go first
					NOT = {
						scope:defender = {
							any_warden_hostage = { home_court ?= scope:attacker }
						}
					}
				}
				trigger_event = { id = bp2_hostage_system.0100 days = 3 }
			}
			# Enroute hostage invalidation
			if = {
				limit = {
					any_close_family_member = {
						is_travelling = yes
						var:hostage_travelling_to_warden ?= { is_at_war_with = scope:attacker }
					}
				}
				every_close_family_member = {
					limit = {
						is_travelling = yes
						var:hostage_travelling_to_warden ?= { is_at_war_with = scope:attacker }
					}
					save_scope_as = invalidated_hostage
					scope:attacker = {
						send_interface_toast = {
							type = event_toast_effect_neutral
							title = hostage_invalidated_during_travel_title
							left_icon = scope:invalidated_hostage
							right_icon = scope:invalidated_hostage.var:hostage_travelling_to_warden
							show_as_tooltip = {
								scope:invalidated_hostage.current_travel_plan = { cancel_travel_plan = yes }
							}
						}
					}
					scope:invalidated_hostage.var:hostage_travelling_to_warden = {
						send_interface_toast = {
							type = event_toast_effect_neutral
							title = hostage_invalidated_during_travel_title
							left_icon = scope:invalidated_hostage
							right_icon = scope:attacker
							scope:invalidated_hostage = {
								current_travel_plan = { cancel_travel_plan = yes }
								remove_variable = hostage_travelling_to_warden
							}
						}
					}
				}
			}
			# Struggle Catalysts
			## Log relative involvement for the war's end (since we may have title changes that mess us up otherwise).
			### Involved.
			if = {
				limit = {
					any_character_struggle = { involvement = involved }
				}
				random_character_struggle = {
					involvement = involved
					save_scope_as = struggle
				}
				scope:war = {
					set_variable = {
						name = struggle_involvement_attacker
						value = flag:involved
					}
					set_variable = {
						name = struggle_scope_attacker
						value = scope:struggle
					}
					set_variable = {
						name = struggle_attacker_tier
						value = scope:attacker.highest_held_title_tier
					}
				}
			}
			### Interloper.
			else_if = {
				limit = {
					any_character_struggle = { involvement = interloper }
				}
				random_character_struggle = {
					involvement = interloper
					save_scope_as = struggle
				}
				scope:war = {
					set_variable = {
						name = struggle_involvement_attacker
						value = flag:interloper
					}
					set_variable = {
						name = struggle_scope_attacker
						value = scope:struggle
					}
					set_variable = {
						name = struggle_attacker_tier
						value = scope:attacker.highest_held_title_tier
					}
				}
			}
			## Unfair wars.
			# if = { # Anbennar
				# limit = {
					# has_trait = fp3_struggle_supporter
					# highest_held_title_tier > scope:defender.highest_held_title_tier
					# scope:war = {
						# NOT = { has_variable = used_for_struggle_catalyst_on_war_started }
					# }
					# any_character_struggle = {
						# involvement = involved
						# activate_struggle_catalyst_secondary_character_involvement_involved_trigger = {
							# CATALYST = catalyst_supporter_declare_unfair_war_within_the_region
							# CHAR = scope:defender
						# }
					# }
				# }
				# every_character_struggle = {
					# involvement = involved
					# limit = {
						# activate_struggle_catalyst_secondary_character_involvement_involved_trigger = {
							# CATALYST = catalyst_supporter_declare_unfair_war_within_the_region
							# CHAR = scope:defender
						# }
					# }
					# activate_struggle_catalyst = {
						# catalyst = catalyst_supporter_declare_unfair_war_within_the_region
						# character = scope:attacker
					# }
					# scope:war = { set_variable = used_for_struggle_catalyst_on_war_started }
					# log_debug_variable_for_persian_struggle_effect = { VAR = stabil_catalyst_supporter_declare_unfair_war_within_the_region }
				# }
			# }
			## Fair wars.
			# else_if = { # Anbennar
				# limit = {
					# has_trait = fp3_struggle_supporter
					# highest_held_title_tier <= scope:defender.highest_held_title_tier
					# scope:war = {
						# NOT = { has_variable = used_for_struggle_catalyst_on_war_started }
					# }
					# any_character_struggle = {
						# involvement = involved
						# activate_struggle_catalyst_secondary_character_involvement_involved_trigger = {
							# CATALYST = catalyst_supporter_declare_fair_war_within_the_region
							# CHAR = scope:defender
						# }
					# }
				# }
				# every_character_struggle = {
					# involvement = involved
					# limit = {
						# activate_struggle_catalyst_secondary_character_involvement_involved_trigger = {
							# CATALYST = catalyst_supporter_declare_fair_war_within_the_region
							# CHAR = scope:defender
						# }
					# }
					# activate_struggle_catalyst = {
						# catalyst = catalyst_supporter_declare_fair_war_within_the_region
						# character = scope:attacker
					# }
					# scope:war = { set_variable = used_for_struggle_catalyst_on_war_started }
					# log_debug_variable_for_persian_struggle_effect = { VAR = stabil_catalyst_supporter_declare_fair_war_within_the_region }
				# }
			# }
			# During the Persian Struggle, a detractor wins any war in the region.
			## Unfair wars.
			# else_if = { # Anbennar
				# limit = {
					# has_trait = fp3_struggle_detractor
					# highest_held_title_tier > scope:defender.highest_held_title_tier
					# scope:war = {
						# NOT = { has_variable = used_for_struggle_catalyst_on_war_started }
					# }
					# any_character_struggle = {
						# involvement = involved
						# activate_struggle_catalyst_secondary_character_involvement_involved_trigger = {
							# CATALYST = catalyst_detractor_declare_unfair_war_within_the_region
							# CHAR = scope:defender
						# }
					# }
				# }
				# every_character_struggle = {
					# involvement = involved
					# limit = {
						# activate_struggle_catalyst_secondary_character_involvement_involved_trigger = {
							# CATALYST = catalyst_detractor_declare_unfair_war_within_the_region
							# CHAR = scope:defender
						# }
					# }
					# activate_struggle_catalyst = {
						# catalyst = catalyst_detractor_declare_unfair_war_within_the_region
						# character = scope:attacker
					# }
					# scope:war = { set_variable = used_for_struggle_catalyst_on_war_started }
					# log_debug_variable_for_persian_struggle_effect = { VAR = unrest_catalyst_detractor_declare_unfair_war_within_the_region }
				# }
			# }
			## Fair wars.
			# else_if = { # Anbennar
				# limit = {
					# has_trait = fp3_struggle_detractor
					# highest_held_title_tier <= scope:defender.highest_held_title_tier
					# scope:war = {
						# NOT = { has_variable = used_for_struggle_catalyst_on_war_started }
					# }
					# any_character_struggle = {
						# involvement = involved
						# activate_struggle_catalyst_secondary_character_involvement_involved_trigger = {
							# CATALYST = catalyst_detractor_declare_fair_war_within_the_region
							# CHAR = scope:defender
						# }
					# }
				# }
				# every_character_struggle = {
					# involvement = involved
					# limit = {
						# activate_struggle_catalyst_secondary_character_involvement_involved_trigger = {
							# CATALYST = catalyst_detractor_declare_fair_war_within_the_region
							# CHAR = scope:defender
						# }
					# }
					# activate_struggle_catalyst = {
						# catalyst = catalyst_detractor_declare_fair_war_within_the_region
						# character = scope:attacker
					# }
					# scope:war = { set_variable = used_for_struggle_catalyst_on_war_started }
					# log_debug_variable_for_persian_struggle_effect = { VAR = unrest_catalyst_detractor_declare_fair_war_within_the_region }
				# }
			# }
		}
		scope:defender = {
			if = {
				limit = {
					any_vassal_or_below = { is_ai = no }
				}
				every_vassal_or_below = {
					limit = { is_ai = no }
					send_interface_toast = {
						type = msg_war_declared_on_liege
						title = msg_war_declared_on_liege
						desc = msg_war_declared_on_liege_desc
						left_icon = scope:defender
						right_icon = scope:attacker
					}
				}
			}
			#life is just a joke tradition stress loss
			if = {
				limit = {
					scope:defender.culture = { has_cultural_parameter = war_stress_loss }
				}
				stress_impact = {
					base = medium_stress_loss
				}
			}
			create_character_memory = {
				type = defensive_war
				
				participants = {
					other_party = scope:attacker
				}
			}
			ordered_memory = {
				limit = {
					has_memory_type = defensive_war
					any_memory_participant = { this = scope:attacker }
				}
				order_by = memory_creation_date
				copy_war_memory_casus_belli_effect = { MEMORY = scope:offensive_memory }
			}
			# If they're in an activity, let them decide whether or not to cancel 
			activity_on_war_declared_events_effect = yes
			# BP2 Defender has attacker's hostage
			if = {
				limit = {
					any_warden_hostage = { home_court ?= scope:attacker }
				}
				trigger_event = { id = bp2_hostage_system.0110 days = 3 }
			}
			# Enroute hostage invalidation
			if = {
				limit = {
					any_close_family_member = {
						is_travelling = yes
						var:hostage_travelling_to_warden ?= { is_at_war_with = scope:defender }
					}
				}
				every_close_family_member = {
					limit = {
						is_travelling = yes
						var:hostage_travelling_to_warden ?= { is_at_war_with = scope:defender }
					}
					save_scope_as = invalidated_hostage
					scope:defender = {
						send_interface_toast = {
							type = event_toast_effect_neutral
							title = hostage_invalidated_during_travel_title
							left_icon = scope:invalidated_hostage
							right_icon = scope:invalidated_hostage.var:hostage_travelling_to_warden
							show_as_tooltip = {
								scope:invalidated_hostage.current_travel_plan = { cancel_travel_plan = yes }
							}
						}
					}
					scope:invalidated_hostage.var:hostage_travelling_to_warden = {
						send_interface_toast = {
							type = event_toast_effect_neutral
							title = hostage_invalidated_during_travel_title
							left_icon = scope:invalidated_hostage
							right_icon = scope:defender
							scope:invalidated_hostage = {
								current_travel_plan = { cancel_travel_plan = yes }
								remove_variable = hostage_travelling_to_warden
							}
						}
					}
				}
			}
			# BP2 Hostage War Aid request event
			if = { # Exclude the following CBs
				limit = {
					scope:war = {
						NOR = {
							using_cb = peasant_war
							using_cb = populist_war
							using_cb = undirected_great_holy_war
							using_cb = directed_great_holy_war
						}
					}
					scope:attacker = {
						is_ai = yes
					}
					scope:defender = {
						has_bp2_dlc_trigger = yes
					}
				}
				if = {
					limit = {
						is_hostage_warden = yes
						# Check if the defender has any hostages whose home court is not the attacker and is not allied to the attacker
						any_warden_hostage = {
							OR = {
								AND = {
									home_court = {
										is_ai = yes
									}
									opinion = {
										target = scope:defender
										value > 0
									}
								}
								AND = {
									home_court = {
										is_ai = no
									}
									opinion = {
										target = scope:defender
										value > 20
									}
								}
							}
							age > 9
							is_imprisoned = no
							is_incapable = no
							exists = home_court
							home_court = {
								age > 4
								is_imprisoned = no
								is_at_war = no
							}
							NOR = {
								home_court = scope:attacker
								home_court = {
									is_allied_to = scope:attacker
									is_allied_to = scope:defender
									is_at_war_with = scope:defender
								}
							}
						}
					}
					random_warden_hostage = {
						limit = {
							OR = {
								AND = {
									home_court = {
										is_ai = yes
									}
									opinion = {
										target = scope:defender
										value > 0
									}
								}
								AND = {
									home_court = {
										is_ai = no
									}
									opinion = {
										target = scope:defender
										value > 20
									}
								}
							}
							age > 9
							is_imprisoned = no
							is_incapable = no
							exists = home_court
							home_court = {
								age > 4
								is_imprisoned = no
								is_at_war = no
							}
							NOR = {
								home_court ?= scope:attacker
								home_court ?= {
									is_allied_to = scope:attacker
									is_allied_to = scope:defender
									is_at_war_with = scope:defender
								}
							}
						}
						save_scope_as = hostage
						scope:hostage.home_court = {
							save_scope_as = home_court
						}
					}
					trigger_event = { id = bp2_yearly.6200 days = { 5 10 } }
				}
			}
			# Struggle Catalysts
			## Log relative involvement for the war's end (since we may have title changes that mess us up otherwise).
			### Involved.
			if = {
				limit = {
					any_character_struggle = { involvement = involved }
				}
				random_character_struggle = {
					involvement = involved
					save_scope_as = struggle
				}
				scope:war = {
					set_variable = {
						name = struggle_involvement_defender
						value = flag:involved
					}
					set_variable = {
						name = struggle_scope_defender
						value = scope:struggle
					}
					set_variable = {
						name = struggle_defender_tier
						value = scope:defender.highest_held_title_tier
					}
				}
			}
			### Interloper.
			else_if = {
				limit = {
					any_character_struggle = { involvement = interloper }
				}
				random_character_struggle = {
					involvement = interloper
					save_scope_as = struggle
				}
				scope:war = {
					set_variable = {
						name = struggle_involvement_defender
						value = flag:interloper
					}
					set_variable = {
						name = struggle_scope_defender
						value = scope:struggle
					}
					set_variable = {
						name = struggle_defender_tier
						value = scope:defender.highest_held_title_tier
					}
				}
			}
		}
		#Admin governors notice war has been dragging on event
		fire_governor_long_war_response_events = yes
		if = {
			limit = {
				scope:war = {
					OR = {
						using_civil_war_cb_trigger = yes
						using_non_ghw_holy_war_cb_trigger = yes
						using_de_jure_cb_trigger = yes
						using_conquest_cb_trigger = yes
					}
				}
			}
			every_player = {
				limit = {
					is_landless_adventurer = yes
					has_realm_law = camp_purpose_mercenaries
					NOT = { is_participant_in_war = scope:war }
					#check scripted range as it's smaller than the code trigger
					OR = {
						is_within_diplo_range = { CHARACTER = scope:attacker }
						is_within_diplo_range = { CHARACTER = scope:defender }
					}
					#check if the contract is valid to create
					OR = {
						can_create_task_contract = {
							type_name = laamp_join_war_contract
							employer = scope:attacker
						}
						can_create_task_contract = {
							type_name = laamp_join_war_contract
							employer = scope:defender
						}
					}
					save_temporary_scope_as = player_laamp
				}
				save_scope_as = player_laamp
				spawn_join_war_contracts_effect = {
					WAR = scope:war
					LAAMP = scope:player_laamp
					ATTACKER = scope:attacker
					DEFENDER = scope:defender
				}
			}
		}
	}
}

# called for when a casus belli resolves in one of the following ways.
# same scopes are available in these events as in the CBs themselves, this just fires for all CBs instead of a specific CB.
# note that any events/effects fired here WILL NOT show up in the war summary tooltip; they fire at the same time as the war resolution, but are not actually part of the war resolution itself.

on_war_won_attacker = { # As in, won BY attacker. Only one of the two on_actions runs when a war ends.
	# The war notifications are handled in `effect` instead of `events` due to order of operations.
	# `effect` fires on THIS tick, `events` fires on the NEXT tick, and the war gets destroyed between this tick and the next.
	effect = {
		# Save scopes for localization.
		scope:attacker = { save_scope_as = winner }
		scope:defender = { save_scope_as = loser }

		# Give out a legend seed for beating ya boi G Khan
		if = {
			limit = {
				scope:loser = {
					OR = {
						has_nickname = nick_genghis_khan
						has_trait = greatest_of_khans
					}
				}
				scope:winner = {
					NOT = {
						has_character_flag = khan_beater
					}
				}
			}
			scope:winner = {
				if = {
					limit = { has_dlc_feature = legends }
					add_character_flag = khan_beater
					send_interface_toast = {
						title = heroic_legend_seed_drop.t
						create_legend_seed = {
							type = heroic
							quality = famed
							chronicle = legendary_battle
							properties = {
								winner = scope:winner
								loser = scope:loser
								location = scope:winner.location
							}
						}
					}
				}
			}
		}
		
		# Give out Legend Seed if GHW
		if = {
			limit = {
				scope:attacker = {
					has_dlc_feature = legends
					NOT = { has_triggered_legend_seed = holy_warrior }
					NOT = { has_game_rule = historical_legends_only }
				}
				scope:war ={
					OR = {
						using_cb = undirected_great_holy_war
						using_cb = directed_great_holy_war
					}
				}
				OR = {
					scope:target_title.tier ?= tier_empire
					scope:target_title.tier ?= tier_kingdom
				}
			}
			random = {
				chance = 75
				scope:attacker = {
					send_interface_toast = {
						title = heroic_legend_seed_drop.t
						create_legend_seed = {
							type = heroic
							quality = famed
							chronicle = holy_warrior
							properties = {
								ancestor = scope:attacker
								religion = scope:attacker.faith.religion
							}
						}
					}
				}
			}
		}
		
		# Change legend chapters if this was a neat war
		scope:winner = {
			if = {
				limit = {
					NOT = {
						has_legend_chapter_winner_trigger = { CHAPTER = battle }
					}
					has_legend_chapter_winner_trigger = { CHAPTER = extra_deed }
					NOT = {
						promoted_legend ?= {
							has_legend_chapter = {
								name = extra_deed
								localization_key = legend_chapter_extra_deed_recent_battle
							}
						}
					}					
				}
				random = {
					chance = 40
					send_interface_toast = {
						title = legend_chapter_winner_change_toast
						left_icon = scope:winner
						promoted_legend = {
							set_legend_chapter = {
								name = extra_deed
								localization_key = legend_chapter_extra_deed_recent_battle
							}
						}
					}
				}
			}
		}

		# Run scripted effect that iterates through all players and notifies them if necessary.
		notify_players_about_neighboring_war_resolution_effect = yes
		
		scope:war = {
			every_war_participant = {
				if = {
					limit = {
						is_ai = yes
						has_character_flag = delayed_cleanse
					}
					trigger_event = { id = game_rule.3 days = 1 }
				}
			}
			fp2_contract_assistance_war_pay_effect = yes # Pay out Contract Assistance money
		}

		# Add a variable to count recent losses
		if = {
			limit = { scope:defender = { has_variable = recently_lost_wars } }
			scope:defender = {
				save_temporary_scope_value_as = {
					name = prev_lost_wars
					value = var:recently_lost_wars
				}

				remove_variable = recently_lost_wars
				set_variable = {
					name = recently_lost_wars
					value =  {
						add = scope:prev_lost_wars
						add = 1
					}
					years = 10
				}
			}
		}
		else = {
			scope:defender = {
				set_variable = {
					name = recently_lost_wars
					value =  1
					years = 10
				}
			}
		}

		# Struggle Catalysts
		## Special war checks for the caliph.		
		scope:defender = {
			if = {
				limit = {
					fp3_struggle_scoped_is_the_arabian_caliph_trigger = yes
					scope:war = {
						NOT = { has_variable = used_for_struggle_catalyst_on_war_ended }
						using_civil_war_cb_trigger = yes
					}
				}
				# Direct scope because this is caliph-specific.
				struggle:persian_struggle = {
					if = {
						limit = { phase_has_catalyst = catalyst_caliph_or_emperor_loses_revolt_war }
						activate_struggle_catalyst = {
							catalyst = catalyst_caliph_or_emperor_loses_revolt_war
							character = scope:defender
						}
						scope:war = { set_variable = used_for_struggle_catalyst_on_war_ended }
						log_debug_variable_for_persian_struggle_effect = { VAR = concession_catalyst_caliph_or_emperor_loses_revolt_war }
					}
				}
			}
		}
		## (Mostly) general checks.
		scope:attacker = {
			# Win any war in the struggle region.
			if = {
				limit = {
					scope:war = {
						NOT = { has_variable = used_for_struggle_catalyst_on_war_ended }
					}
					any_character_struggle = {
						involvement = involved
						activate_struggle_catalyst_secondary_character_involvement_involved_trigger = {
							CATALYST = catalyst_win_any_war_within_the_region
							CHAR = scope:defender
						}
					}
				}
				every_character_struggle = {
					limit = {
						activate_struggle_catalyst_secondary_character_involvement_involved_trigger = {
							CATALYST = catalyst_win_any_war_within_the_region
							CHAR = scope:defender
						}
					}
					activate_struggle_catalyst = {
						catalyst = catalyst_win_any_war_within_the_region
						character = scope:attacker
					}
					scope:war = { set_variable = used_for_struggle_catalyst_on_war_ended }
				}
			}
			# During the Persian Struggle, a supporter wins any war in the region.
			fp3_struggle_apply_supporter_detractor_war_won_catalysts_effect = yes
			fp3_struggle_apply_catalyst_interloper_uninvolved_gain_struggle_titles = yes
		}	
		
		# Memories
		scope:attacker = {
			create_character_memory = {
				type = war_won
				participants = {
					loser = scope:defender
					winner = scope:attacker
				}
			}
			set_war_over_memory_casus_belli_effect = {
				STANCE = offensive
				OUTCOME = won
				SELF = attacker
				OTHER = defender
			}
		}
		scope:defender = {
			create_character_memory = {
				type = war_lost
				participants = {
					winner = scope:attacker
					loser = scope:defender
				}
			}
			set_war_over_memory_casus_belli_effect = {
				STANCE = defensive
				OUTCOME = lost
				SELF = defender
				OTHER = attacker
			}
			if = {
				limit = {
					any_owned_story = {
						story_type = story_conqueror
					}
				}
				if = {
					limit = {
						NOT = {
							has_variable = lost_wars
						}
					}
					set_variable = {
						name = lost_wars
						value = 1
					}
				}
				else = {
					change_variable = {
						name = lost_wars
						add = 1
					}
				}
			}
		}

		scope:war.casus_belli = {
			ordered_in_list = {
				list = target_titles
				order_by = tier
				save_scope_as = chronicle_title
			}
		}
		
		if = {
			limit = {
				scope:war ={
					NOR = {
						using_cb = undirected_great_holy_war
						using_cb = directed_great_holy_war
					}
				}
				scope:chronicle_title.tier ?= tier_empire
				scope:attacker = {
					any_held_title = {
						count = 1
						this.tier >= scope:attacker.primary_title.tier
					}
				}
			}
			if = {
				limit = {
					scope:attacker = {
						has_dlc_feature = legends
						NOT = { has_game_rule = historical_legends_only }
					}
				}
				random = {
					chance = legend_seed_chance_medium
					scope:attacker = {
						send_interface_toast = {
							type = msg_legend_seed_created
							title = heroic_legend_seed_drop.t
							create_legend_seed = {
								type = heroic
								quality = famed
								chronicle = war_won_chronicle
								properties = {
									title = scope:chronicle_title
									winner = scope:attacker
									loser = scope:defender
								}
							}
						}
					}
				}
			}
		}
		else_if = {
			limit = {
				scope:war ={
					NOR = {
						using_cb = undirected_great_holy_war
						using_cb = directed_great_holy_war
					}
				}
				scope:chronicle_title.tier ?= tier_kingdom
				scope:attacker = {
					any_held_title = {
						count = 1
						this.tier >= scope:attacker.primary_title.tier
					}
				}
			}
			if = {
				limit = {
					scope:attacker = {
						has_dlc_feature = legends
						NOT = { has_game_rule = historical_legends_only }
					}
				}
				random = {
					chance = legend_seed_chance_low
					scope:attacker = {
						send_interface_toast = {
							type = msg_legend_seed_created
							title = heroic_legend_seed_drop.t
							create_legend_seed = {
								type = heroic
								quality = famed
								chronicle = war_won_chronicle
								properties = {
									title = scope:chronicle_title
									winner = scope:attacker
									loser = scope:defender
								}
							}
						}
					}				
				}
			}
		}
		
		# EP3 - Give out the Populist Leader if you won through a Separatist Uprising
		if = {
			limit = {
				scope:winner = {
					has_dlc_feature = roads_to_power
					has_variable_list = separatist_uprising_decision_target_var
					is_target_in_variable_list = {
						name = separatist_uprising_decision_target_var
						target = scope:loser
					}
				}
			}
			if = {
				limit = {
					scope:winner = {
						NOT = { has_trait = populist_leader }
					}
				}
				scope:winner = {
					trigger_event = {
						id = ep3_decisions_event.6002
						days = 1 # So it doesn't overlap with "Forks on the Road"
					}
				}
			}
			# We also give you a claim on the kingdom title
			if = {
				limit = {
					scope:winner = {
						NOT = {
							primary_title.tier = tier_kingdom
						}
					}
				}
				scope:winner = { add_pressed_claim = scope:winner.location.county.kingdom }
			}
		}	

		# EP3 - Echoes of Empire Story Cycle
		# if = { # Anbennar
			# limit = {
				# has_ep3_dlc_trigger = yes
				# any_in_list = {
					# list = target_titles
					# this = title:e_byzantium
				# }
				# scope:winner = {
					# has_title = title:e_byzantium
					# NOT = {
						# any_owned_story = {
							# story_type = grand_ambitions_story_cycle
							# var:method ?= flag:scheme
						# } 
					# }
				# }
			# }
			# scope:winner = {
				# trigger_event = {
					# id = grand_ambitions.0002
					# days = 5
				# }
			# }
		# }

		# EP3 - Become Adventurer - Conquest/Deposition
		scope:defender = {
			if = { # Only fire for characters who will game over otherwise
				limit = {
					# Do I or any vassal hold a county or barony outside of the lost titles
					NOR = {
						any_held_title = {
							NOT = { is_in_list = target_titles }
							tier <= tier_county
						}
						any_vassal = {
							any_held_title = {
								NOT = { is_in_list = target_titles }
								tier <= tier_county
							}
						}
					}
				}
				trigger_event = ep3_laamps.0002
			}
		}
		#if a holder of contested titles wasn't the defender, but lost all titles through this war, make them laamp 
		every_in_list = {
			list = target_titles
			ordered_past_holder_reversed = {
				position = 1
				save_scope_as = last_holder
			}
			scope:last_holder ?= {
				if = {
					limit = {
						has_ep3_dlc_trigger = yes
						is_ai = no
						is_ruler = no
						is_valid_for_laampdom = yes
					}
					# Plus for our memory variable.
					prev = { save_scope_as = lost_primary_title }
					custom_tooltip = {
						text = laamp_may_become_adventurer_tt
						trigger_event = {
							id = ep3_laamps.0002
							delayed = yes
						}
					}
				}
			}
		}
		# EP3 - Is it valid for a Byzantine triumph?
		# if = { # Anbennar
			# limit = {
				# scope:attacker = {
					# OR = {
						# has_title = title:e_byzantium
						# has_title = title:e_roman_empire
					# }
					# culture = { has_cultural_parameter = holds_triumphs }
				# }
			# }
			# scope:attacker = {
				# set_variable = {
					# name = ep3_valid_triumph_victory
					# value = scope:defender
					# years = 5
				# }
			# }
		# }
		# EP3 - War Group Contracts
		war_task_contracts_completion_effect = yes
		# EP3 - LAAMPS hired as mercenaries
		laamp_as_mercenary_payout_effect = yes
		#EP3 Admin peace count
		ep3_admin_war_aftermath_effect = yes
		#EP3 victory domicile effect
		scope:attacker = {
			if = {
				limit = {
					exists = house
					house.house_head.domicile ?= { has_domicile_parameter = trophy_room_victory_influence }
				}
				house = {
					every_house_member = {
						send_interface_message = {
							type = event_war_good
							title = house_gains_influence_victory
							left_icon = scope:attacker
							change_influence = medium_influence_gain
						}
					}
				}
			}
		}
		
		# if = { # Anbennar
			# limit = {
				# scope:attacker = {
					# is_ai = no 
					# this = character:223523
				# }
				# scope:defender = {
					# this = character:226000
				# }
			# }
			# scope:attacker = {
				# add_achievement_global_variable_effect = {
					# VARIABLE = finished_kingdom_of_heaven_achievement
					# VALUE = yes
				# }
			# }
		# }
		#allies befriending the war leader if they contributed, moved from join_war_interaction on_accept
		allies_progress_towards_friendship_effect = yes
	}
}

on_war_won_defender = {
	effect = {
		# Save scopes for localization.
		scope:attacker = { save_scope_as = loser }
		scope:defender = { save_scope_as = winner }

		# Give out a legend seed for beating ya boi G Khan
		if = {
			limit = {
				scope:loser = {
					OR = {
						has_nickname = nick_genghis_khan
						has_trait = greatest_of_khans
					}
				}
				scope:winner = {
					NOT = {
						has_character_flag = khan_beater
						has_dlc_feature = legends
					}
				}
			}
			scope:winner = {
				add_character_flag = khan_beater
				create_legend_seed = {
					type = heroic
					quality = famed
					chronicle = legendary_battle
					properties = {
						winner = scope:winner
						loser = scope:loser
						location = scope:winner.location
					}
				}
			}
		}
		
		# Give out Legend Seed if GHW
		if = {
			limit = {
				scope:defender = {
					has_dlc_feature = legends
					NOT = { has_triggered_legend_seed = holy_warrior }
					NOT = { has_game_rule = historical_legends_only }
				}
				scope:war ={
					OR = {
						using_cb = undirected_great_holy_war
						using_cb = directed_great_holy_war
					}
				}
				OR = {
					scope:target_title.tier ?= tier_empire
					scope:target_title.tier ?= tier_kingdom
				}
			}
			random = {
				chance = 75
				scope:defender = {
					send_interface_toast = {
						title = heroic_legend_seed_drop.t
						create_legend_seed = {
							type = heroic
							quality = famed
							chronicle = holy_warrior
							properties = {
								ancestor = scope:defender
								religion = scope:defender.faith.religion
							}
						}
					}
				}
			}
		}
		
		# Change legend chapters if this was a neat war
		scope:winner = {
			if = {
				limit = {
					NOT = {
						has_legend_chapter_winner_trigger = { CHAPTER = battle }
					}
					has_legend_chapter_winner_trigger = { CHAPTER = extra_deed }
					NOT = {
						promoted_legend ?= {
							has_legend_chapter = {
								name = extra_deed
								localization_key = legend_chapter_extra_deed_recent_battle
							}
						}
					}
				}
				random = {
					chance = 40
					promoted_legend = {
						set_legend_chapter = {
							name = battle
							localization_key = legend_chapter_extra_deed_recent_battle
						}
					}
				}
			}
		}

		# Run scripted effect that iterates through all players and notifies them if necessary.
		notify_players_about_neighboring_war_resolution_effect = yes
		
		scope:war = {
			every_war_participant = {
				if = {
					limit = {
						is_ai = yes
						has_character_flag = delayed_cleanse
					}
					trigger_event = { id = game_rule.3 days = 1 }
				}
			}
			fp2_contract_assistance_war_pay_effect = yes
		}

		# Add a variable to count recent losses
		if = {
			limit = { scope:attacker = {  has_variable = recently_lost_wars } }
			scope:attacker = {
				save_temporary_scope_value_as = {
					name = prev_lost_wars
					value = var:recently_lost_wars
				}

				remove_variable = recently_lost_wars
				set_variable = {
					name = recently_lost_wars
					value =  {
						add = scope:prev_lost_wars
						add = 1
					}
					years = 10
				}
			}
		}
		else = {
			scope:attacker = {
				set_variable = {
					name = recently_lost_wars
					value =  1
					years = 10
				}
			}
		}

		# Struggle Catalysts
		## Special war checks for the caliph.
		scope:attacker = {
			if = {
				limit = {
					fp3_struggle_scoped_is_the_arabian_caliph_trigger = yes
					scope:war = {
						NOT = { has_variable = used_for_struggle_catalyst_on_war_ended }
						using_civil_war_cb_trigger = yes
					}
				}
				# Direct scope because this is caliph-specific.
				struggle:persian_struggle = {
					if = {
						limit = { phase_has_catalyst = catalyst_caliph_or_emperor_loses_revolt_war }
						activate_struggle_catalyst = {
							catalyst = catalyst_caliph_or_emperor_loses_revolt_war
							character = scope:attacker
						}
						scope:war = { set_variable = used_for_struggle_catalyst_on_war_ended }
						log_debug_variable_for_persian_struggle_effect = { VAR = concession_catalyst_caliph_or_emperor_loses_revolt_war }
					}
				}
			}
		}
		## During the Persian Struggle, a supporter wins any war in the region.
		scope:attacker = { fp3_struggle_apply_supporter_detractor_war_won_catalysts_effect = yes }
		
		scope:attacker = {
			create_character_memory = {
				type = war_lost
				participants = {
					winner = scope:defender
					loser = scope:attacker
				}
			}

			set_war_over_memory_casus_belli_effect = {
				STANCE = offensive
				OUTCOME = lost
				SELF = attacker
				OTHER = defender
			}
			if = {
				limit = {
					any_owned_story = {
						story_type = story_conqueror
					}
				}
				if = {
					limit = {
						NOT = {
							has_variable = lost_wars
						}
					}
					set_variable = {
						name = lost_wars
						value = 1
					}
				}
				else = {
					change_variable = {
						name = lost_wars
						add = 1
					}
				}
			}
		}
		
		scope:defender = {
			create_character_memory = {
				type = war_won
				participants = {
					loser = scope:attacker
					winner = scope:defender
				}
			}
			set_war_over_memory_casus_belli_effect = {
				STANCE = defensive
				OUTCOME = won
				SELF = defender
				OTHER = attacker
			}
		}
		
		if = {
			limit = {
				scope:attacker.primary_title.tier > scope:defender.primary_title.tier
				scope:defender.primary_title.tier <= tier_duchy
				scope:defender = {
					has_dlc_feature = legends
					NOT = { has_game_rule = historical_legends_only }
				}
			}
			random = {
				chance = legend_seed_chance_high
				scope:defender = {
					send_interface_toast = {
						type = msg_legend_seed_created
						title = heroic_legend_seed_drop.t
						create_legend_seed = {
							type = heroic
							quality = famed
							chronicle = valiant_defense
							properties = {
								attacker = scope:attacker
								defender = scope:defender
							}
						}
					}
				}				
			}
		}

		#Ep3 - Is it valid for a Byzantine triumph?
		# if = { # Anbennar
			# limit = {
				# scope:defender = {
					# OR = {
						# has_title = title:e_byzantium
						# has_title = title:e_roman_empire
					# }
					# culture = { has_cultural_parameter = holds_triumphs }
				# }
			# }
			# scope:defender = {
				# set_variable = {
					# name = ep3_valid_triumph_victory
					# value = scope:attacker
					# years = 5
				# }
			# }
		# }
		# EP3 - War Group Contracts
		war_task_contracts_completion_effect = yes
		# EP3 - LAAMPS hired as mercenaries
		laamp_as_mercenary_payout_effect = yes
		#EP3 Admin peace count
		ep3_admin_war_aftermath_effect = yes
		#EP3 victory domicile effect
		scope:defender = {
			if = {
				limit = {
					exists = house
					house.house_head.domicile ?= { has_domicile_parameter = trophy_room_victory_influence }
				}
				house = {
					every_house_member = {
						send_interface_message = {
							type = event_war_good
							title = house_gains_influence_victory
							left_icon = scope:defender
							change_influence = medium_influence_gain
						}
					}
				}
			}
		}
		
		# if = { # Anbennar
			# limit = {
				# scope:defender = {
					# is_ai = no 
					# this = character:223523
				# }
				# scope:attacker = {
					# this = character:226000
				# }
			# }
			# scope:defender = {
				# add_achievement_global_variable_effect = {
					# VARIABLE = finished_kingdom_of_heaven_achievement
					# VALUE = yes
				# }
			# }
		# }
		#allies befriending the war leader if they contributed, moved from join_war_interaction on_accept
		allies_progress_towards_friendship_effect = yes
	}
}

on_war_white_peace = {
	effect = {
		scope:war = {
			every_war_participant = {
				if = {
					limit = {
						is_ai = yes
						has_character_flag = delayed_cleanse
					}
					trigger_event = { id = game_rule.3 days = 1 }
				}
			}
			fp2_contract_assistance_war_pay_effect = yes # Pay out Contract Assistance money

			# FP3 Struggle
			if = {
				limit = {
					scope:war = {
						NOT = { has_variable = used_for_struggle_catalyst_on_war_ended }
					}
					fp3_struggle_involves_one_supporter_and_one_detractor = {
						FIRST = scope:attacker
						SECOND = scope:defender
					}
					scope:attacker = {
						any_character_struggle = {
							involvement = involved
							activate_struggle_catalyst_secondary_character_involvement_involved_trigger = {
								CATALYST = catalyst_war_ends_in_white_peace_between_supporter_detractor
								CHAR = scope:defender
							}
						}
					}
				}
				scope:attacker = {
					every_character_struggle = {
						involvement = involved
						limit = {
							activate_struggle_catalyst_secondary_character_involvement_involved_trigger = {
								CATALYST = catalyst_war_ends_in_white_peace_between_supporter_detractor
								CHAR = scope:defender
							}
						}
						activate_struggle_catalyst = {
							catalyst = catalyst_war_ends_in_white_peace_between_supporter_detractor
							character = scope:attacker
						}
						scope:war = { set_variable = used_for_struggle_catalyst_on_war_ended }
						log_debug_variable_for_persian_struggle_effect = { VAR = concession_catalyst_war_ends_in_white_peace_between_supporter_detractor }
					}
				}
			}
		}
		scope:attacker = {
			create_character_memory = {
				type = war_white_peace_attacker
				participants = {
					attacker = scope:attacker
					defender = scope:defender
				}
			}
			set_war_over_memory_casus_belli_effect = {
				STANCE = offensive
				OUTCOME = white_peace_attacker
				SELF = attacker
				OTHER = defender
			}
		}
		
		scope:defender = {
			create_character_memory = {
				type = war_white_peace_defender
				participants = {
					attacker = scope:attacker
					defender = scope:defender
				}
			}
			set_war_over_memory_casus_belli_effect = {
				STANCE = defensive
				OUTCOME = white_peace_defender
				SELF = defender
				OTHER = attacker
			}
		}
		# EP3 - War Group Contracts
		war_task_contracts_completion_effect = yes
		# EP3 - LAAMPS hired as mercenaries
		laamp_as_mercenary_payout_effect = yes
		#EP3 white peace domicile effect
		scope:war = {
			if = {
				limit = {
					any_war_participant = {
						exists = house
						domicile ?= { has_domicile_parameter = solar_white_peace_stress_loss }
					}
				}
				every_war_participant = {
					limit = {
						exists = house
						domicile ?= { has_domicile_parameter = solar_white_peace_stress_loss }
					}
					house = {
						every_house_member = {
							add_stress = major_stress_loss
						}
					}
				}
			}
		}
		#EP3 Admin peace count
		ep3_admin_war_aftermath_effect = yes
		#allies befriending the war leader if they contributed, moved from join_war_interaction on_accept
		allies_progress_towards_friendship_effect = yes
	}
}

on_war_invalidated = {
	effect = {
		scope:attacker = {
			send_interface_message = {
				type = event_war_invalidated
				title = END_WAR_INVALIDATED_MESSAGE_TITLE
				desc = END_WAR_INVALIDATED_MESSAGE_DESC
				left_icon = scope:attacker
				right_icon = scope:defender
			}
		}
		
		scope:war = {
			every_war_participant = {
				if = {
					limit = {
						is_ai = yes
						has_character_flag = delayed_cleanse
					}
					trigger_event = { id = game_rule.3 days = 1 }
				}
			}
			fp2_contract_assistance_invalidated_effect = yes
		}

		#EP2 Accolade glory gain from ????
		if = {
			limit = {
				scope:attacker = {
					any_knight = {
						OR = {
							is_healthy = no
							is_imprisoned = yes
						}
					}
				}
				scope:defender = {
					any_knight = {
						OR = {
							is_healthy = no
							is_imprisoned = yes
						}
					}
				}
			}
			scope:attacker = { accolade_attacker_war_end_glory_gain_low_effect = yes }
			scope:defender = { accolade_defender_war_end_glory_gain_low_effect = yes }
		}
		#EP3 Admin peace count
		ep3_admin_war_aftermath_effect = yes

		# EP3 - War Group Contracts
		war_task_contracts_completion_effect = yes
		# EP3 - LAAMPS hired as mercenaries
		laamp_as_mercenary_payout_effect = yes
	}
}
